<?xml version="1.0" encoding="utf-8" standalone="no"?>
<!DOCTYPE svg PUBLIC "-//W3C//DTD SVG 1.1//EN"
  "http://www.w3.org/Graphics/SVG/1.1/DTD/svg11.dtd">
<svg xmlns:xlink="http://www.w3.org/1999/xlink" width="460.8pt" height="345.6pt" viewBox="0 0 460.8 345.6" xmlns="http://www.w3.org/2000/svg" version="1.1">
 <metadata>
  <rdf:RDF xmlns:dc="http://purl.org/dc/elements/1.1/" xmlns:cc="http://creativecommons.org/ns#" xmlns:rdf="http://www.w3.org/1999/02/22-rdf-syntax-ns#">
   <cc:Work>
    <dc:type rdf:resource="http://purl.org/dc/dcmitype/StillImage"/>
    <dc:date>2021-12-12T23:55:25.723420</dc:date>
    <dc:format>image/svg+xml</dc:format>
    <dc:creator>
     <cc:Agent>
      <dc:title>Matplotlib v3.5.0, https://matplotlib.org/</dc:title>
     </cc:Agent>
    </dc:creator>
   </cc:Work>
  </rdf:RDF>
 </metadata>
 <defs>
  <style type="text/css">*{stroke-linejoin: round; stroke-linecap: butt}</style>
 </defs>
 <g id="figure_1">
  <g id="patch_1">
   <path d="M 0 345.6 
L 460.8 345.6 
L 460.8 0 
L 0 0 
z
" style="fill: #ffffff"/>
  </g>
  <g id="axes_1">
   <g id="patch_2">
    <path d="M 57.6 307.584 
L 414.72 307.584 
L 414.72 41.472 
L 57.6 41.472 
z
" style="fill: #ffffff"/>
   </g>
   <g id="matplotlib.axis_1">
    <g id="xtick_1">
     <g id="line2d_1">
      <path d="M 73.459884 307.584 
L 73.459884 41.472 
" clip-path="url(#p92c574d690)" style="fill: none; stroke: #cccccc; stroke-width: 0.8; stroke-linecap: round"/>
     </g>
     <g id="line2d_2"/>
     <g id="text_1">
      <!-- 0 -->
      <g style="fill: #262626" transform="translate(70.679416 318.330875)scale(0.1 -0.1)">
       <defs>
        <path id="LiberationSans-30" d="M 3309 2203 
Q 3309 1569 3189 1136 
Q 3069 703 2861 436 
Q 2653 169 2372 53 
Q 2091 -63 1772 -63 
Q 1450 -63 1172 53 
Q 894 169 689 434 
Q 484 700 367 1133 
Q 250 1566 250 2203 
Q 250 2869 367 3305 
Q 484 3741 690 4000 
Q 897 4259 1178 4364 
Q 1459 4469 1791 4469 
Q 2106 4469 2382 4364 
Q 2659 4259 2865 4000 
Q 3072 3741 3190 3305 
Q 3309 2869 3309 2203 
z
M 2738 2203 
Q 2738 2728 2675 3076 
Q 2613 3425 2491 3633 
Q 2369 3841 2192 3927 
Q 2016 4013 1791 4013 
Q 1553 4013 1372 3925 
Q 1191 3838 1067 3630 
Q 944 3422 881 3073 
Q 819 2725 819 2203 
Q 819 1697 883 1350 
Q 947 1003 1070 792 
Q 1194 581 1372 489 
Q 1550 397 1778 397 
Q 2000 397 2178 489 
Q 2356 581 2479 792 
Q 2603 1003 2670 1350 
Q 2738 1697 2738 2203 
z
" transform="scale(0.015625)"/>
       </defs>
       <use xlink:href="#LiberationSans-30"/>
      </g>
     </g>
    </g>
    <g id="xtick_2">
     <g id="line2d_3">
      <path d="M 138.709537 307.584 
L 138.709537 41.472 
" clip-path="url(#p92c574d690)" style="fill: none; stroke: #cccccc; stroke-width: 0.8; stroke-linecap: round"/>
     </g>
     <g id="line2d_4"/>
     <g id="text_2">
      <!-- 20 -->
      <g style="fill: #262626" transform="translate(133.148599 318.330875)scale(0.1 -0.1)">
       <defs>
        <path id="LiberationSans-32" d="M 322 0 
L 322 397 
Q 481 763 711 1042 
Q 941 1322 1194 1548 
Q 1447 1775 1695 1969 
Q 1944 2163 2144 2356 
Q 2344 2550 2467 2762 
Q 2591 2975 2591 3244 
Q 2591 3431 2534 3573 
Q 2478 3716 2372 3812 
Q 2266 3909 2117 3957 
Q 1969 4006 1788 4006 
Q 1619 4006 1470 3959 
Q 1322 3913 1206 3819 
Q 1091 3725 1017 3586 
Q 944 3447 922 3263 
L 347 3316 
Q 375 3553 478 3762 
Q 581 3972 762 4130 
Q 944 4288 1198 4378 
Q 1453 4469 1788 4469 
Q 2116 4469 2372 4391 
Q 2628 4313 2804 4159 
Q 2981 4006 3075 3781 
Q 3169 3556 3169 3263 
Q 3169 3041 3089 2841 
Q 3009 2641 2876 2459 
Q 2744 2278 2569 2109 
Q 2394 1941 2203 1780 
Q 2013 1619 1819 1461 
Q 1625 1303 1454 1143 
Q 1284 984 1150 820 
Q 1016 656 941 478 
L 3238 478 
L 3238 0 
L 322 0 
z
" transform="scale(0.015625)"/>
       </defs>
       <use xlink:href="#LiberationSans-32"/>
       <use xlink:href="#LiberationSans-30" x="55.615234"/>
      </g>
     </g>
    </g>
    <g id="xtick_3">
     <g id="line2d_5">
      <path d="M 203.959189 307.584 
L 203.959189 41.472 
" clip-path="url(#p92c574d690)" style="fill: none; stroke: #cccccc; stroke-width: 0.8; stroke-linecap: round"/>
     </g>
     <g id="line2d_6"/>
     <g id="text_3">
      <!-- 40 -->
      <g style="fill: #262626" transform="translate(198.398252 318.330875)scale(0.1 -0.1)">
       <defs>
        <path id="LiberationSans-34" d="M 2753 997 
L 2753 0 
L 2222 0 
L 2222 997 
L 147 997 
L 147 1434 
L 2163 4403 
L 2753 4403 
L 2753 1441 
L 3372 1441 
L 3372 997 
L 2753 997 
z
M 2222 3769 
Q 2216 3753 2191 3708 
Q 2166 3663 2134 3606 
Q 2103 3550 2070 3492 
Q 2038 3434 2013 3397 
L 884 1734 
Q 869 1709 839 1668 
Q 809 1628 778 1586 
Q 747 1544 715 1503 
Q 684 1463 666 1441 
L 2222 1441 
L 2222 3769 
z
" transform="scale(0.015625)"/>
       </defs>
       <use xlink:href="#LiberationSans-34"/>
       <use xlink:href="#LiberationSans-30" x="55.615234"/>
      </g>
     </g>
    </g>
    <g id="xtick_4">
     <g id="line2d_7">
      <path d="M 269.208841 307.584 
L 269.208841 41.472 
" clip-path="url(#p92c574d690)" style="fill: none; stroke: #cccccc; stroke-width: 0.8; stroke-linecap: round"/>
     </g>
     <g id="line2d_8"/>
     <g id="text_4">
      <!-- 60 -->
      <g style="fill: #262626" transform="translate(263.647904 318.330875)scale(0.1 -0.1)">
       <defs>
        <path id="LiberationSans-36" d="M 3278 1441 
Q 3278 1109 3186 832 
Q 3094 556 2914 357 
Q 2734 159 2468 48 
Q 2203 -63 1856 -63 
Q 1472 -63 1184 84 
Q 897 231 706 507 
Q 516 784 420 1186 
Q 325 1588 325 2100 
Q 325 2688 433 3131 
Q 541 3575 744 3872 
Q 947 4169 1239 4319 
Q 1531 4469 1900 4469 
Q 2125 4469 2322 4422 
Q 2519 4375 2680 4270 
Q 2841 4166 2962 3994 
Q 3084 3822 3156 3572 
L 2619 3475 
Q 2531 3759 2339 3886 
Q 2147 4013 1894 4013 
Q 1663 4013 1475 3903 
Q 1288 3794 1156 3576 
Q 1025 3359 954 3031 
Q 884 2703 884 2266 
Q 1038 2550 1316 2698 
Q 1594 2847 1953 2847 
Q 2253 2847 2497 2750 
Q 2741 2653 2914 2470 
Q 3088 2288 3183 2027 
Q 3278 1766 3278 1441 
z
M 2706 1416 
Q 2706 1644 2650 1828 
Q 2594 2013 2481 2142 
Q 2369 2272 2203 2342 
Q 2038 2413 1819 2413 
Q 1666 2413 1509 2367 
Q 1353 2322 1226 2220 
Q 1100 2119 1020 1953 
Q 941 1788 941 1550 
Q 941 1306 1003 1095 
Q 1066 884 1183 728 
Q 1300 572 1465 481 
Q 1631 391 1838 391 
Q 2041 391 2202 461 
Q 2363 531 2475 664 
Q 2588 797 2647 987 
Q 2706 1178 2706 1416 
z
" transform="scale(0.015625)"/>
       </defs>
       <use xlink:href="#LiberationSans-36"/>
       <use xlink:href="#LiberationSans-30" x="55.615234"/>
      </g>
     </g>
    </g>
    <g id="xtick_5">
     <g id="line2d_9">
      <path d="M 334.458494 307.584 
L 334.458494 41.472 
" clip-path="url(#p92c574d690)" style="fill: none; stroke: #cccccc; stroke-width: 0.8; stroke-linecap: round"/>
     </g>
     <g id="line2d_10"/>
     <g id="text_5">
      <!-- 80 -->
      <g style="fill: #262626" transform="translate(328.897556 318.330875)scale(0.1 -0.1)">
       <defs>
        <path id="LiberationSans-38" d="M 3281 1228 
Q 3281 947 3192 711 
Q 3103 475 2920 303 
Q 2738 131 2453 34 
Q 2169 -63 1781 -63 
Q 1394 -63 1111 34 
Q 828 131 642 301 
Q 456 472 367 708 
Q 278 944 278 1222 
Q 278 1463 351 1650 
Q 425 1838 548 1973 
Q 672 2109 830 2192 
Q 988 2275 1156 2303 
L 1156 2316 
Q 972 2359 826 2456 
Q 681 2553 582 2689 
Q 484 2825 432 2990 
Q 381 3156 381 3341 
Q 381 3572 470 3776 
Q 559 3981 734 4136 
Q 909 4291 1168 4380 
Q 1428 4469 1769 4469 
Q 2128 4469 2392 4378 
Q 2656 4288 2829 4133 
Q 3003 3978 3087 3772 
Q 3172 3566 3172 3334 
Q 3172 3153 3120 2987 
Q 3069 2822 2970 2686 
Q 2872 2550 2726 2454 
Q 2581 2359 2391 2322 
L 2391 2309 
Q 2581 2278 2743 2195 
Q 2906 2113 3025 1977 
Q 3144 1841 3212 1653 
Q 3281 1466 3281 1228 
z
M 2588 3303 
Q 2588 3469 2545 3606 
Q 2503 3744 2406 3842 
Q 2309 3941 2153 3995 
Q 1997 4050 1769 4050 
Q 1547 4050 1394 3995 
Q 1241 3941 1142 3842 
Q 1044 3744 1000 3606 
Q 956 3469 956 3303 
Q 956 3172 990 3034 
Q 1025 2897 1115 2784 
Q 1206 2672 1365 2600 
Q 1525 2528 1775 2528 
Q 2041 2528 2202 2600 
Q 2363 2672 2448 2784 
Q 2534 2897 2561 3034 
Q 2588 3172 2588 3303 
z
M 2697 1281 
Q 2697 1441 2653 1589 
Q 2609 1738 2503 1852 
Q 2397 1966 2217 2036 
Q 2038 2106 1769 2106 
Q 1522 2106 1348 2036 
Q 1175 1966 1067 1850 
Q 959 1734 909 1582 
Q 859 1431 859 1269 
Q 859 1066 909 898 
Q 959 731 1068 611 
Q 1178 491 1356 425 
Q 1534 359 1788 359 
Q 2044 359 2219 425 
Q 2394 491 2500 611 
Q 2606 731 2651 901 
Q 2697 1072 2697 1281 
z
" transform="scale(0.015625)"/>
       </defs>
       <use xlink:href="#LiberationSans-38"/>
       <use xlink:href="#LiberationSans-30" x="55.615234"/>
      </g>
     </g>
    </g>
    <g id="xtick_6">
     <g id="line2d_11">
      <path d="M 399.708146 307.584 
L 399.708146 41.472 
" clip-path="url(#p92c574d690)" style="fill: none; stroke: #cccccc; stroke-width: 0.8; stroke-linecap: round"/>
     </g>
     <g id="line2d_12"/>
     <g id="text_6">
      <!-- 100 -->
      <g style="fill: #262626" transform="translate(391.36674 318.330875)scale(0.1 -0.1)">
       <defs>
        <path id="LiberationSans-31" d="M 488 0 
L 488 478 
L 1609 478 
L 1609 3866 
L 616 3156 
L 616 3688 
L 1656 4403 
L 2175 4403 
L 2175 478 
L 3247 478 
L 3247 0 
L 488 0 
z
" transform="scale(0.015625)"/>
       </defs>
       <use xlink:href="#LiberationSans-31"/>
       <use xlink:href="#LiberationSans-30" x="55.615234"/>
       <use xlink:href="#LiberationSans-30" x="111.230469"/>
      </g>
     </g>
    </g>
   </g>
   <g id="matplotlib.axis_2">
    <g id="ytick_1">
     <g id="line2d_13">
      <path d="M 57.6 298.571212 
L 414.72 298.571212 
" clip-path="url(#p92c574d690)" style="fill: none; stroke: #cccccc; stroke-width: 0.8; stroke-linecap: round"/>
     </g>
     <g id="line2d_14"/>
     <g id="text_7">
      <!-- 0 -->
      <g style="fill: #262626" transform="translate(48.539062 302.194649)scale(0.1 -0.1)">
       <use xlink:href="#LiberationSans-30"/>
      </g>
     </g>
    </g>
    <g id="ytick_2">
     <g id="line2d_15">
      <path d="M 57.6 248.987221 
L 414.72 248.987221 
" clip-path="url(#p92c574d690)" style="fill: none; stroke: #cccccc; stroke-width: 0.8; stroke-linecap: round"/>
     </g>
     <g id="line2d_16"/>
     <g id="text_8">
      <!-- 20 -->
      <g style="fill: #262626" transform="translate(42.978125 252.610658)scale(0.1 -0.1)">
       <use xlink:href="#LiberationSans-32"/>
       <use xlink:href="#LiberationSans-30" x="55.615234"/>
      </g>
     </g>
    </g>
    <g id="ytick_3">
     <g id="line2d_17">
      <path d="M 57.6 199.40323 
L 414.72 199.40323 
" clip-path="url(#p92c574d690)" style="fill: none; stroke: #cccccc; stroke-width: 0.8; stroke-linecap: round"/>
     </g>
     <g id="line2d_18"/>
     <g id="text_9">
      <!-- 40 -->
      <g style="fill: #262626" transform="translate(42.978125 203.026668)scale(0.1 -0.1)">
       <use xlink:href="#LiberationSans-34"/>
       <use xlink:href="#LiberationSans-30" x="55.615234"/>
      </g>
     </g>
    </g>
    <g id="ytick_4">
     <g id="line2d_19">
      <path d="M 57.6 149.81924 
L 414.72 149.81924 
" clip-path="url(#p92c574d690)" style="fill: none; stroke: #cccccc; stroke-width: 0.8; stroke-linecap: round"/>
     </g>
     <g id="line2d_20"/>
     <g id="text_10">
      <!-- 60 -->
      <g style="fill: #262626" transform="translate(42.978125 153.442677)scale(0.1 -0.1)">
       <use xlink:href="#LiberationSans-36"/>
       <use xlink:href="#LiberationSans-30" x="55.615234"/>
      </g>
     </g>
    </g>
    <g id="ytick_5">
     <g id="line2d_21">
      <path d="M 57.6 100.235249 
L 414.72 100.235249 
" clip-path="url(#p92c574d690)" style="fill: none; stroke: #cccccc; stroke-width: 0.8; stroke-linecap: round"/>
     </g>
     <g id="line2d_22"/>
     <g id="text_11">
      <!-- 80 -->
      <g style="fill: #262626" transform="translate(42.978125 103.858687)scale(0.1 -0.1)">
       <use xlink:href="#LiberationSans-38"/>
       <use xlink:href="#LiberationSans-30" x="55.615234"/>
      </g>
     </g>
    </g>
    <g id="ytick_6">
     <g id="line2d_23">
      <path d="M 57.6 50.651259 
L 414.72 50.651259 
" clip-path="url(#p92c574d690)" style="fill: none; stroke: #cccccc; stroke-width: 0.8; stroke-linecap: round"/>
     </g>
     <g id="line2d_24"/>
     <g id="text_12">
      <!-- 100 -->
      <g style="fill: #262626" transform="translate(37.417187 54.274696)scale(0.1 -0.1)">
       <use xlink:href="#LiberationSans-31"/>
       <use xlink:href="#LiberationSans-30" x="55.615234"/>
       <use xlink:href="#LiberationSans-30" x="111.230469"/>
      </g>
     </g>
    </g>
   </g>
   <g id="line2d_25">
    <path d="M 348.951046 110.659192 
L 366.704313 128.997947 
" clip-path="url(#p92c574d690)" style="fill: none; stroke: #000000; stroke-width: 0.5; stroke-linecap: round"/>
   </g>
   <g id="line2d_26">
    <path d="M 348.951046 110.659192 
L 342.564124 132.922701 
" clip-path="url(#p92c574d690)" style="fill: none; stroke: #000000; stroke-width: 10; stroke-linecap: round"/>
   </g>
   <g id="line2d_27">
    <path d="M 348.951046 110.659192 
L 374.711336 89.708513 
" clip-path="url(#p92c574d690)" style="fill: none; stroke: #000000; stroke-width: 1.190476; stroke-linecap: round"/>
   </g>
   <g id="line2d_28">
    <path d="M 348.951046 110.659192 
L 338.25234 87.966691 
" clip-path="url(#p92c574d690)" style="fill: none; stroke: #000000; stroke-width: 0.5; stroke-linecap: round"/>
   </g>
   <g id="line2d_29">
    <path d="M 210.670632 234.380583 
L 261.265027 226.592735 
" clip-path="url(#p92c574d690)" style="fill: none; stroke: #000000; stroke-width: 0.5; stroke-linecap: round"/>
   </g>
   <g id="line2d_30">
    <path d="M 210.670632 234.380583 
L 187.742682 253.866806 
" clip-path="url(#p92c574d690)" style="fill: none; stroke: #000000; stroke-width: 0.5; stroke-linecap: round"/>
   </g>
   <g id="line2d_31">
    <path d="M 210.670632 234.380583 
L 217.764069 255.229973 
" clip-path="url(#p92c574d690)" style="fill: none; stroke: #000000; stroke-width: 0.5; stroke-linecap: round"/>
   </g>
   <g id="line2d_32">
    <path d="M 210.670632 234.380583 
L 188.372862 227.200532 
" clip-path="url(#p92c574d690)" style="fill: none; stroke: #949494; stroke-width: 0.5; stroke-linecap: round"/>
   </g>
   <g id="line2d_33">
    <path d="M 210.670632 234.380583 
L 182.557855 239.215218 
" clip-path="url(#p92c574d690)" style="fill: none; stroke: #000000; stroke-width: 0.5; stroke-linecap: round"/>
   </g>
   <g id="line2d_34">
    <path d="M 210.670632 234.380583 
L 208.659251 198.841177 
" clip-path="url(#p92c574d690)" style="fill: none; stroke: #000000; stroke-width: 0.833333; stroke-linecap: round"/>
   </g>
   <g id="line2d_35">
    <path d="M 240.262374 198.179959 
L 249.82967 201.561113 
" clip-path="url(#p92c574d690)" style="fill: none; stroke: #000000; stroke-width: 0.5; stroke-linecap: round"/>
   </g>
   <g id="line2d_36">
    <path d="M 240.262374 198.179959 
L 227.326856 196.947485 
" clip-path="url(#p92c574d690)" style="fill: none; stroke: #000000; stroke-width: 0.5; stroke-linecap: round"/>
   </g>
   <g id="line2d_37">
    <path d="M 329.172812 223.373935 
L 303.557368 230.236013 
" clip-path="url(#p92c574d690)" style="fill: none; stroke: #000000; stroke-width: 0.833333; stroke-linecap: round"/>
   </g>
   <g id="line2d_38">
    <path d="M 329.172812 223.373935 
L 332.691198 216.128865 
" clip-path="url(#p92c574d690)" style="fill: none; stroke: #000000; stroke-width: 1.666667; stroke-linecap: round"/>
   </g>
   <g id="line2d_39">
    <path d="M 329.172812 223.373935 
L 346.745386 236.359997 
" clip-path="url(#p92c574d690)" style="fill: none; stroke: #000000; stroke-width: 0.714286; stroke-linecap: round"/>
   </g>
   <g id="line2d_40">
    <path d="M 329.172812 223.373935 
L 315.397236 215.290795 
" clip-path="url(#p92c574d690)" style="fill: none; stroke: #949494; stroke-width: 0.5; stroke-linecap: round"/>
   </g>
   <g id="line2d_41">
    <path d="M 228.948812 153.939164 
L 215.107691 147.120142 
" clip-path="url(#p92c574d690)" style="fill: none; stroke: #000000; stroke-width: 0.5; stroke-linecap: round"/>
   </g>
   <g id="line2d_42">
    <path d="M 228.948812 153.939164 
L 273.376069 135.772247 
" clip-path="url(#p92c574d690)" style="fill: none; stroke: #000000; stroke-width: 1.785714; stroke-linecap: round"/>
   </g>
   <g id="line2d_43">
    <path d="M 228.948812 153.939164 
L 280.627501 148.24782 
" clip-path="url(#p92c574d690)" style="fill: none; stroke: #949494; stroke-width: 0.5; stroke-linecap: round"/>
   </g>
   <g id="line2d_44">
    <path d="M 228.948812 153.939164 
L 227.326856 196.947485 
" clip-path="url(#p92c574d690)" style="fill: none; stroke: #000000; stroke-width: 1.547619; stroke-linecap: round"/>
   </g>
   <g id="line2d_45">
    <path d="M 228.948812 153.939164 
L 259.131926 172.479091 
" clip-path="url(#p92c574d690)" style="fill: none; stroke: #949494; stroke-width: 0.5; stroke-linecap: round"/>
   </g>
   <g id="line2d_46">
    <path d="M 369.730135 173.44927 
L 335.49579 187.510617 
" clip-path="url(#p92c574d690)" style="fill: none; stroke: #000000; stroke-width: 0.5; stroke-linecap: round"/>
   </g>
   <g id="line2d_47">
    <path d="M 369.730135 173.44927 
L 370.351027 166.132876 
" clip-path="url(#p92c574d690)" style="fill: none; stroke: #949494; stroke-width: 0.5; stroke-linecap: round"/>
   </g>
   <g id="line2d_48">
    <path d="M 165.408991 111.192269 
L 174.64499 117.631359 
" clip-path="url(#p92c574d690)" style="fill: none; stroke: #000000; stroke-width: 0.5; stroke-linecap: round"/>
   </g>
   <g id="line2d_49">
    <path d="M 165.408991 111.192269 
L 158.445048 98.988751 
" clip-path="url(#p92c574d690)" style="fill: none; stroke: #000000; stroke-width: 0.5; stroke-linecap: round"/>
   </g>
   <g id="line2d_50">
    <path d="M 165.408991 111.192269 
L 152.749834 117.220438 
" clip-path="url(#p92c574d690)" style="fill: none; stroke: #000000; stroke-width: 0.5; stroke-linecap: round"/>
   </g>
   <g id="line2d_51">
    <path d="M 275.201695 236.465691 
L 261.265027 226.592735 
" clip-path="url(#p92c574d690)" style="fill: none; stroke: #949494; stroke-width: 0.5; stroke-linecap: round"/>
   </g>
   <g id="line2d_52">
    <path d="M 275.201695 236.465691 
L 303.557368 230.236013 
" clip-path="url(#p92c574d690)" style="fill: none; stroke: #000000; stroke-width: 0.714286; stroke-linecap: round"/>
   </g>
   <g id="line2d_53">
    <path d="M 275.201695 236.465691 
L 289.500142 286.973594 
" clip-path="url(#p92c574d690)" style="fill: none; stroke: #000000; stroke-width: 0.595238; stroke-linecap: round"/>
   </g>
   <g id="line2d_54">
    <path d="M 370.263019 54.919083 
L 371.328153 58.930206 
" clip-path="url(#p92c574d690)" style="fill: none; stroke: #000000; stroke-width: 0.5; stroke-linecap: round"/>
   </g>
   <g id="line2d_55">
    <path d="M 337.791849 74.906272 
L 320.626847 81.202342 
" clip-path="url(#p92c574d690)" style="fill: none; stroke: #000000; stroke-width: 0.5; stroke-linecap: round"/>
   </g>
   <g id="line2d_56">
    <path d="M 337.791849 74.906272 
L 366.487304 69.720657 
" clip-path="url(#p92c574d690)" style="fill: none; stroke: #000000; stroke-width: 0.595238; stroke-linecap: round"/>
   </g>
   <g id="line2d_57">
    <path d="M 337.791849 74.906272 
L 338.25234 87.966691 
" clip-path="url(#p92c574d690)" style="fill: none; stroke: #949494; stroke-width: 0.5; stroke-linecap: round"/>
   </g>
   <g id="line2d_58">
    <path d="M 337.791849 74.906272 
L 334.702068 66.277862 
" clip-path="url(#p92c574d690)" style="fill: none; stroke: #000000; stroke-width: 0.5; stroke-linecap: round"/>
   </g>
   <g id="line2d_59">
    <path d="M 174.64499 117.631359 
L 208.663033 137.216759 
" clip-path="url(#p92c574d690)" style="fill: none; stroke: #000000; stroke-width: 0.5; stroke-linecap: round"/>
   </g>
   <g id="line2d_60">
    <path d="M 366.704313 128.997947 
L 342.564124 132.922701 
" clip-path="url(#p92c574d690)" style="fill: none; stroke: #949494; stroke-width: 0.5; stroke-linecap: round"/>
   </g>
   <g id="line2d_61">
    <path d="M 366.704313 128.997947 
L 387.910535 149.029459 
" clip-path="url(#p92c574d690)" style="fill: none; stroke: #000000; stroke-width: 0.5; stroke-linecap: round"/>
   </g>
   <g id="line2d_62">
    <path d="M 366.704313 128.997947 
L 365.464792 152.34773 
" clip-path="url(#p92c574d690)" style="fill: none; stroke: #949494; stroke-width: 0.5; stroke-linecap: round"/>
   </g>
   <g id="line2d_63">
    <path d="M 227.495625 273.605373 
L 228.927292 276.30196 
" clip-path="url(#p92c574d690)" style="fill: none; stroke: #000000; stroke-width: 0.5; stroke-linecap: round"/>
   </g>
   <g id="line2d_64">
    <path d="M 227.495625 273.605373 
L 217.764069 255.229973 
" clip-path="url(#p92c574d690)" style="fill: none; stroke: #000000; stroke-width: 0.5; stroke-linecap: round"/>
   </g>
   <g id="line2d_65">
    <path d="M 215.107691 147.120142 
L 220.455315 134.883208 
" clip-path="url(#p92c574d690)" style="fill: none; stroke: #949494; stroke-width: 0.5; stroke-linecap: round"/>
   </g>
   <g id="line2d_66">
    <path d="M 215.107691 147.120142 
L 208.663033 137.216759 
" clip-path="url(#p92c574d690)" style="fill: none; stroke: #949494; stroke-width: 0.5; stroke-linecap: round"/>
   </g>
   <g id="line2d_67">
    <path d="M 371.328153 58.930206 
L 366.487304 69.720657 
" clip-path="url(#p92c574d690)" style="fill: none; stroke: #000000; stroke-width: 0.5; stroke-linecap: round"/>
   </g>
   <g id="line2d_68">
    <path d="M 371.328153 58.930206 
L 398.487273 71.243188 
" clip-path="url(#p92c574d690)" style="fill: none; stroke: #949494; stroke-width: 0.5; stroke-linecap: round"/>
   </g>
   <g id="line2d_69">
    <path d="M 229.083495 84.043615 
L 179.557242 82.764025 
" clip-path="url(#p92c574d690)" style="fill: none; stroke: #000000; stroke-width: 0.5; stroke-linecap: round"/>
   </g>
   <g id="line2d_70">
    <path d="M 229.083495 84.043615 
L 239.174636 67.303094 
" clip-path="url(#p92c574d690)" style="fill: none; stroke: #000000; stroke-width: 0.5; stroke-linecap: round"/>
   </g>
   <g id="line2d_71">
    <path d="M 229.083495 84.043615 
L 220.455315 134.883208 
" clip-path="url(#p92c574d690)" style="fill: none; stroke: #000000; stroke-width: 0.952381; stroke-linecap: round"/>
   </g>
   <g id="line2d_72">
    <path d="M 229.083495 84.043615 
L 279.044359 89.059619 
" clip-path="url(#p92c574d690)" style="fill: none; stroke: #949494; stroke-width: 0.5; stroke-linecap: round"/>
   </g>
   <g id="line2d_73">
    <path d="M 229.083495 84.043615 
L 190.648651 63.814361 
" clip-path="url(#p92c574d690)" style="fill: none; stroke: #000000; stroke-width: 0.5; stroke-linecap: round"/>
   </g>
   <g id="line2d_74">
    <path d="M 158.445048 98.988751 
L 179.557242 82.764025 
" clip-path="url(#p92c574d690)" style="fill: none; stroke: #949494; stroke-width: 0.5; stroke-linecap: round"/>
   </g>
   <g id="line2d_75">
    <path d="M 158.445048 98.988751 
L 151.802013 62.27143 
" clip-path="url(#p92c574d690)" style="fill: none; stroke: #949494; stroke-width: 0.5; stroke-linecap: round"/>
   </g>
   <g id="line2d_76">
    <path d="M 252.472079 295.089994 
L 237.770419 288.808444 
" clip-path="url(#p92c574d690)" style="fill: none; stroke: #000000; stroke-width: 0.5; stroke-linecap: round"/>
   </g>
   <g id="line2d_77">
    <path d="M 252.472079 295.089994 
L 256.354731 295.488 
" clip-path="url(#p92c574d690)" style="fill: none; stroke: #000000; stroke-width: 0.5; stroke-linecap: round"/>
   </g>
   <g id="line2d_78">
    <path d="M 308.262287 199.694898 
L 335.49579 187.510617 
" clip-path="url(#p92c574d690)" style="fill: none; stroke: #000000; stroke-width: 0.5; stroke-linecap: round"/>
   </g>
   <g id="line2d_79">
    <path d="M 308.262287 199.694898 
L 306.929454 202.373997 
" clip-path="url(#p92c574d690)" style="fill: none; stroke: #000000; stroke-width: 0.5; stroke-linecap: round"/>
   </g>
   <g id="line2d_80">
    <path d="M 308.262287 199.694898 
L 302.430579 194.884504 
" clip-path="url(#p92c574d690)" style="fill: none; stroke: #949494; stroke-width: 0.5; stroke-linecap: round"/>
   </g>
   <g id="line2d_81">
    <path d="M 342.564124 132.922701 
L 339.178283 164.624125 
" clip-path="url(#p92c574d690)" style="fill: none; stroke: #000000; stroke-width: 3.571429; stroke-linecap: round"/>
   </g>
   <g id="line2d_82">
    <path d="M 342.564124 132.922701 
L 365.464792 152.34773 
" clip-path="url(#p92c574d690)" style="fill: none; stroke: #000000; stroke-width: 0.5; stroke-linecap: round"/>
   </g>
   <g id="line2d_83">
    <path d="M 342.564124 132.922701 
L 280.21902 144.593869 
" clip-path="url(#p92c574d690)" style="fill: none; stroke: #000000; stroke-width: 6.190476; stroke-linecap: round"/>
   </g>
   <g id="line2d_84">
    <path d="M 73.832727 176.20341 
L 88.21742 156.298371 
" clip-path="url(#p92c574d690)" style="fill: none; stroke: #000000; stroke-width: 0.5; stroke-linecap: round"/>
   </g>
   <g id="line2d_85">
    <path d="M 73.832727 176.20341 
L 80.89266 193.051811 
" clip-path="url(#p92c574d690)" style="fill: none; stroke: #949494; stroke-width: 0.5; stroke-linecap: round"/>
   </g>
   <g id="line2d_86">
    <path d="M 356.513782 238.100838 
L 339.650114 273.6286 
" clip-path="url(#p92c574d690)" style="fill: none; stroke: #949494; stroke-width: 0.5; stroke-linecap: round"/>
   </g>
   <g id="line2d_87">
    <path d="M 356.513782 238.100838 
L 373.113061 256.567471 
" clip-path="url(#p92c574d690)" style="fill: none; stroke: #000000; stroke-width: 0.5; stroke-linecap: round"/>
   </g>
   <g id="line2d_88">
    <path d="M 356.513782 238.100838 
L 346.745386 236.359997 
" clip-path="url(#p92c574d690)" style="fill: none; stroke: #000000; stroke-width: 0.5; stroke-linecap: round"/>
   </g>
   <g id="line2d_89">
    <path d="M 179.557242 82.764025 
L 151.802013 62.27143 
" clip-path="url(#p92c574d690)" style="fill: none; stroke: #000000; stroke-width: 0.5; stroke-linecap: round"/>
   </g>
   <g id="line2d_90">
    <path d="M 179.557242 82.764025 
L 190.648651 63.814361 
" clip-path="url(#p92c574d690)" style="fill: none; stroke: #949494; stroke-width: 0.5; stroke-linecap: round"/>
   </g>
   <g id="line2d_91">
    <path d="M 135.795191 157.873975 
L 109.039817 161.901062 
" clip-path="url(#p92c574d690)" style="fill: none; stroke: #000000; stroke-width: 0.595238; stroke-linecap: round"/>
   </g>
   <g id="line2d_92">
    <path d="M 135.795191 157.873975 
L 145.50505 138.185418 
" clip-path="url(#p92c574d690)" style="fill: none; stroke: #949494; stroke-width: 0.5; stroke-linecap: round"/>
   </g>
   <g id="line2d_93">
    <path d="M 135.795191 157.873975 
L 138.499365 209.678198 
" clip-path="url(#p92c574d690)" style="fill: none; stroke: #000000; stroke-width: 1.190476; stroke-linecap: round"/>
   </g>
   <g id="line2d_94">
    <path d="M 135.795191 157.873975 
L 155.246193 150.614717 
" clip-path="url(#p92c574d690)" style="fill: none; stroke: #000000; stroke-width: 1.904762; stroke-linecap: round"/>
   </g>
   <g id="line2d_95">
    <path d="M 151.307916 58.698678 
L 106.385264 53.568 
" clip-path="url(#p92c574d690)" style="fill: none; stroke: #000000; stroke-width: 0.5; stroke-linecap: round"/>
   </g>
   <g id="line2d_96">
    <path d="M 151.307916 58.698678 
L 151.802013 62.27143 
" clip-path="url(#p92c574d690)" style="fill: none; stroke: #000000; stroke-width: 0.5; stroke-linecap: round"/>
   </g>
   <g id="line2d_97">
    <path d="M 335.49579 187.510617 
L 303.974316 162.849687 
" clip-path="url(#p92c574d690)" style="fill: none; stroke: #949494; stroke-width: 0.5; stroke-linecap: round"/>
   </g>
   <g id="line2d_98">
    <path d="M 335.49579 187.510617 
L 339.178283 164.624125 
" clip-path="url(#p92c574d690)" style="fill: none; stroke: #000000; stroke-width: 2.619048; stroke-linecap: round"/>
   </g>
   <g id="line2d_99">
    <path d="M 335.49579 187.510617 
L 332.691198 216.128865 
" clip-path="url(#p92c574d690)" style="fill: none; stroke: #000000; stroke-width: 1.904762; stroke-linecap: round"/>
   </g>
   <g id="line2d_100">
    <path d="M 335.49579 187.510617 
L 349.278189 213.705102 
" clip-path="url(#p92c574d690)" style="fill: none; stroke: #000000; stroke-width: 0.5; stroke-linecap: round"/>
   </g>
   <g id="line2d_101">
    <path d="M 99.705193 219.223289 
L 80.89266 193.051811 
" clip-path="url(#p92c574d690)" style="fill: none; stroke: #000000; stroke-width: 0.5; stroke-linecap: round"/>
   </g>
   <g id="line2d_102">
    <path d="M 99.705193 219.223289 
L 106.574155 234.131885 
" clip-path="url(#p92c574d690)" style="fill: none; stroke: #949494; stroke-width: 0.5; stroke-linecap: round"/>
   </g>
   <g id="line2d_103">
    <path d="M 99.705193 219.223289 
L 138.499365 209.678198 
" clip-path="url(#p92c574d690)" style="fill: none; stroke: #000000; stroke-width: 0.5; stroke-linecap: round"/>
   </g>
   <g id="line2d_104">
    <path d="M 99.705193 219.223289 
L 88.368286 228.934671 
" clip-path="url(#p92c574d690)" style="fill: none; stroke: #000000; stroke-width: 0.5; stroke-linecap: round"/>
   </g>
   <g id="line2d_105">
    <path d="M 239.174636 67.303094 
L 279.044359 89.059619 
" clip-path="url(#p92c574d690)" style="fill: none; stroke: #949494; stroke-width: 0.5; stroke-linecap: round"/>
   </g>
   <g id="line2d_106">
    <path d="M 239.174636 67.303094 
L 194.217397 55.48157 
" clip-path="url(#p92c574d690)" style="fill: none; stroke: #000000; stroke-width: 0.5; stroke-linecap: round"/>
   </g>
   <g id="line2d_107">
    <path d="M 239.174636 67.303094 
L 292.907699 58.944453 
" clip-path="url(#p92c574d690)" style="fill: none; stroke: #949494; stroke-width: 0.5; stroke-linecap: round"/>
   </g>
   <g id="line2d_108">
    <path d="M 239.174636 67.303094 
L 190.648651 63.814361 
" clip-path="url(#p92c574d690)" style="fill: none; stroke: #949494; stroke-width: 0.5; stroke-linecap: round"/>
   </g>
   <g id="line2d_109">
    <path d="M 109.039817 161.901062 
L 121.209087 125.604739 
" clip-path="url(#p92c574d690)" style="fill: none; stroke: #000000; stroke-width: 0.5; stroke-linecap: round"/>
   </g>
   <g id="line2d_110">
    <path d="M 109.039817 161.901062 
L 88.21742 156.298371 
" clip-path="url(#p92c574d690)" style="fill: none; stroke: #000000; stroke-width: 0.5; stroke-linecap: round"/>
   </g>
   <g id="line2d_111">
    <path d="M 109.039817 161.901062 
L 138.499365 209.678198 
" clip-path="url(#p92c574d690)" style="fill: none; stroke: #949494; stroke-width: 0.5; stroke-linecap: round"/>
   </g>
   <g id="line2d_112">
    <path d="M 303.974316 162.849687 
L 339.178283 164.624125 
" clip-path="url(#p92c574d690)" style="fill: none; stroke: #000000; stroke-width: 0.714286; stroke-linecap: round"/>
   </g>
   <g id="line2d_113">
    <path d="M 303.974316 162.849687 
L 273.379307 177.971988 
" clip-path="url(#p92c574d690)" style="fill: none; stroke: #000000; stroke-width: 0.5; stroke-linecap: round"/>
   </g>
   <g id="line2d_114">
    <path d="M 303.974316 162.849687 
L 280.627501 148.24782 
" clip-path="url(#p92c574d690)" style="fill: none; stroke: #949494; stroke-width: 0.5; stroke-linecap: round"/>
   </g>
   <g id="line2d_115">
    <path d="M 303.974316 162.849687 
L 302.430579 194.884504 
" clip-path="url(#p92c574d690)" style="fill: none; stroke: #000000; stroke-width: 0.5; stroke-linecap: round"/>
   </g>
   <g id="line2d_116">
    <path d="M 339.178283 164.624125 
L 359.065244 157.715138 
" clip-path="url(#p92c574d690)" style="fill: none; stroke: #000000; stroke-width: 0.5; stroke-linecap: round"/>
   </g>
   <g id="line2d_117">
    <path d="M 387.910535 149.029459 
L 383.319023 154.853252 
" clip-path="url(#p92c574d690)" style="fill: none; stroke: #000000; stroke-width: 0.5; stroke-linecap: round"/>
   </g>
   <g id="line2d_118">
    <path d="M 265.16893 188.249553 
L 273.379307 177.971988 
" clip-path="url(#p92c574d690)" style="fill: none; stroke: #000000; stroke-width: 0.5; stroke-linecap: round"/>
   </g>
   <g id="line2d_119">
    <path d="M 265.16893 188.249553 
L 261.363533 201.582593 
" clip-path="url(#p92c574d690)" style="fill: none; stroke: #000000; stroke-width: 0.5; stroke-linecap: round"/>
   </g>
   <g id="line2d_120">
    <path d="M 265.16893 188.249553 
L 259.131926 172.479091 
" clip-path="url(#p92c574d690)" style="fill: none; stroke: #949494; stroke-width: 0.5; stroke-linecap: round"/>
   </g>
   <g id="line2d_121">
    <path d="M 267.997437 203.146538 
L 261.265027 226.592735 
" clip-path="url(#p92c574d690)" style="fill: none; stroke: #949494; stroke-width: 0.5; stroke-linecap: round"/>
   </g>
   <g id="line2d_122">
    <path d="M 267.997437 203.146538 
L 261.363533 201.582593 
" clip-path="url(#p92c574d690)" style="fill: none; stroke: #000000; stroke-width: 0.5; stroke-linecap: round"/>
   </g>
   <g id="line2d_123">
    <path d="M 267.997437 203.146538 
L 281.410331 204.6968 
" clip-path="url(#p92c574d690)" style="fill: none; stroke: #949494; stroke-width: 0.5; stroke-linecap: round"/>
   </g>
   <g id="line2d_124">
    <path d="M 261.265027 226.592735 
L 249.82967 201.561113 
" clip-path="url(#p92c574d690)" style="fill: none; stroke: #949494; stroke-width: 0.5; stroke-linecap: round"/>
   </g>
   <g id="line2d_125">
    <path d="M 261.265027 226.592735 
L 217.764069 255.229973 
" clip-path="url(#p92c574d690)" style="fill: none; stroke: #949494; stroke-width: 0.5; stroke-linecap: round"/>
   </g>
   <g id="line2d_126">
    <path d="M 135.248476 252.277236 
L 113.880466 246.365093 
" clip-path="url(#p92c574d690)" style="fill: none; stroke: #000000; stroke-width: 0.5; stroke-linecap: round"/>
   </g>
   <g id="line2d_127">
    <path d="M 135.248476 252.277236 
L 187.742682 253.866806 
" clip-path="url(#p92c574d690)" style="fill: none; stroke: #949494; stroke-width: 0.5; stroke-linecap: round"/>
   </g>
   <g id="line2d_128">
    <path d="M 135.248476 252.277236 
L 138.499365 209.678198 
" clip-path="url(#p92c574d690)" style="fill: none; stroke: #000000; stroke-width: 0.5; stroke-linecap: round"/>
   </g>
   <g id="line2d_129">
    <path d="M 135.248476 252.277236 
L 182.557855 239.215218 
" clip-path="url(#p92c574d690)" style="fill: none; stroke: #949494; stroke-width: 0.5; stroke-linecap: round"/>
   </g>
   <g id="line2d_130">
    <path d="M 273.376069 135.772247 
L 220.455315 134.883208 
" clip-path="url(#p92c574d690)" style="fill: none; stroke: #000000; stroke-width: 3.809524; stroke-linecap: round"/>
   </g>
   <g id="line2d_131">
    <path d="M 273.376069 135.772247 
L 279.044359 89.059619 
" clip-path="url(#p92c574d690)" style="fill: none; stroke: #000000; stroke-width: 0.5; stroke-linecap: round"/>
   </g>
   <g id="line2d_132">
    <path d="M 273.376069 135.772247 
L 280.21902 144.593869 
" clip-path="url(#p92c574d690)" style="fill: none; stroke: #000000; stroke-width: 5.833333; stroke-linecap: round"/>
   </g>
   <g id="line2d_133">
    <path d="M 228.927292 276.30196 
L 237.770419 288.808444 
" clip-path="url(#p92c574d690)" style="fill: none; stroke: #949494; stroke-width: 0.5; stroke-linecap: round"/>
   </g>
   <g id="line2d_134">
    <path d="M 320.626847 81.202342 
L 338.25234 87.966691 
" clip-path="url(#p92c574d690)" style="fill: none; stroke: #949494; stroke-width: 0.5; stroke-linecap: round"/>
   </g>
   <g id="line2d_135">
    <path d="M 320.626847 81.202342 
L 312.14256 90.733329 
" clip-path="url(#p92c574d690)" style="fill: none; stroke: #000000; stroke-width: 0.5; stroke-linecap: round"/>
   </g>
   <g id="line2d_136">
    <path d="M 320.626847 81.202342 
L 292.907699 58.944453 
" clip-path="url(#p92c574d690)" style="fill: none; stroke: #000000; stroke-width: 0.5; stroke-linecap: round"/>
   </g>
   <g id="line2d_137">
    <path d="M 374.711336 89.708513 
L 366.487304 69.720657 
" clip-path="url(#p92c574d690)" style="fill: none; stroke: #000000; stroke-width: 0.952381; stroke-linecap: round"/>
   </g>
   <g id="line2d_138">
    <path d="M 374.711336 89.708513 
L 338.25234 87.966691 
" clip-path="url(#p92c574d690)" style="fill: none; stroke: #949494; stroke-width: 0.5; stroke-linecap: round"/>
   </g>
   <g id="line2d_139">
    <path d="M 374.711336 89.708513 
L 398.487273 71.243188 
" clip-path="url(#p92c574d690)" style="fill: none; stroke: #000000; stroke-width: 0.5; stroke-linecap: round"/>
   </g>
   <g id="line2d_140">
    <path d="M 366.487304 69.720657 
L 398.487273 71.243188 
" clip-path="url(#p92c574d690)" style="fill: none; stroke: #949494; stroke-width: 0.5; stroke-linecap: round"/>
   </g>
   <g id="line2d_141">
    <path d="M 249.82967 201.561113 
L 261.363533 201.582593 
" clip-path="url(#p92c574d690)" style="fill: none; stroke: #949494; stroke-width: 0.5; stroke-linecap: round"/>
   </g>
   <g id="line2d_142">
    <path d="M 303.557368 230.236013 
L 315.397236 215.290795 
" clip-path="url(#p92c574d690)" style="fill: none; stroke: #949494; stroke-width: 0.5; stroke-linecap: round"/>
   </g>
   <g id="line2d_143">
    <path d="M 303.557368 230.236013 
L 281.410331 204.6968 
" clip-path="url(#p92c574d690)" style="fill: none; stroke: #949494; stroke-width: 0.5; stroke-linecap: round"/>
   </g>
   <g id="line2d_144">
    <path d="M 365.464792 152.34773 
L 383.319023 154.853252 
" clip-path="url(#p92c574d690)" style="fill: none; stroke: #949494; stroke-width: 0.5; stroke-linecap: round"/>
   </g>
   <g id="line2d_145">
    <path d="M 365.464792 152.34773 
L 359.065244 157.715138 
" clip-path="url(#p92c574d690)" style="fill: none; stroke: #949494; stroke-width: 0.5; stroke-linecap: round"/>
   </g>
   <g id="line2d_146">
    <path d="M 383.319023 154.853252 
L 370.351027 166.132876 
" clip-path="url(#p92c574d690)" style="fill: none; stroke: #000000; stroke-width: 0.5; stroke-linecap: round"/>
   </g>
   <g id="line2d_147">
    <path d="M 220.455315 134.883208 
L 208.663033 137.216759 
" clip-path="url(#p92c574d690)" style="fill: none; stroke: #000000; stroke-width: 2.738095; stroke-linecap: round"/>
   </g>
   <g id="line2d_148">
    <path d="M 332.280814 278.149304 
L 339.650114 273.6286 
" clip-path="url(#p92c574d690)" style="fill: none; stroke: #000000; stroke-width: 0.5; stroke-linecap: round"/>
   </g>
   <g id="line2d_149">
    <path d="M 332.280814 278.149304 
L 295.500906 291.952544 
" clip-path="url(#p92c574d690)" style="fill: none; stroke: #949494; stroke-width: 0.5; stroke-linecap: round"/>
   </g>
   <g id="line2d_150">
    <path d="M 273.379307 177.971988 
L 280.627501 148.24782 
" clip-path="url(#p92c574d690)" style="fill: none; stroke: #949494; stroke-width: 0.5; stroke-linecap: round"/>
   </g>
   <g id="line2d_151">
    <path d="M 273.379307 177.971988 
L 259.131926 172.479091 
" clip-path="url(#p92c574d690)" style="fill: none; stroke: #949494; stroke-width: 0.5; stroke-linecap: round"/>
   </g>
   <g id="line2d_152">
    <path d="M 273.379307 177.971988 
L 302.430579 194.884504 
" clip-path="url(#p92c574d690)" style="fill: none; stroke: #949494; stroke-width: 0.5; stroke-linecap: round"/>
   </g>
   <g id="line2d_153">
    <path d="M 279.044359 89.059619 
L 312.14256 90.733329 
" clip-path="url(#p92c574d690)" style="fill: none; stroke: #949494; stroke-width: 0.5; stroke-linecap: round"/>
   </g>
   <g id="line2d_154">
    <path d="M 279.044359 89.059619 
L 292.907699 58.944453 
" clip-path="url(#p92c574d690)" style="fill: none; stroke: #949494; stroke-width: 0.5; stroke-linecap: round"/>
   </g>
   <g id="line2d_155">
    <path d="M 152.749834 117.220438 
L 121.209087 125.604739 
" clip-path="url(#p92c574d690)" style="fill: none; stroke: #949494; stroke-width: 0.5; stroke-linecap: round"/>
   </g>
   <g id="line2d_156">
    <path d="M 152.749834 117.220438 
L 145.50505 138.185418 
" clip-path="url(#p92c574d690)" style="fill: none; stroke: #949494; stroke-width: 0.5; stroke-linecap: round"/>
   </g>
   <g id="line2d_157">
    <path d="M 111.674744 243.914646 
L 113.880466 246.365093 
" clip-path="url(#p92c574d690)" style="fill: none; stroke: #949494; stroke-width: 0.5; stroke-linecap: round"/>
   </g>
   <g id="line2d_158">
    <path d="M 111.674744 243.914646 
L 106.574155 234.131885 
" clip-path="url(#p92c574d690)" style="fill: none; stroke: #000000; stroke-width: 0.5; stroke-linecap: round"/>
   </g>
   <g id="line2d_159">
    <path d="M 111.674744 243.914646 
L 73.957159 250.893839 
" clip-path="url(#p92c574d690)" style="fill: none; stroke: #000000; stroke-width: 0.5; stroke-linecap: round"/>
   </g>
   <g id="line2d_160">
    <path d="M 332.691198 216.128865 
L 349.278189 213.705102 
" clip-path="url(#p92c574d690)" style="fill: none; stroke: #949494; stroke-width: 0.5; stroke-linecap: round"/>
   </g>
   <g id="line2d_161">
    <path d="M 332.691198 216.128865 
L 315.397236 215.290795 
" clip-path="url(#p92c574d690)" style="fill: none; stroke: #000000; stroke-width: 0.5; stroke-linecap: round"/>
   </g>
   <g id="line2d_162">
    <path d="M 339.650114 273.6286 
L 373.113061 256.567471 
" clip-path="url(#p92c574d690)" style="fill: none; stroke: #949494; stroke-width: 0.5; stroke-linecap: round"/>
   </g>
   <g id="line2d_163">
    <path d="M 339.650114 273.6286 
L 346.745386 236.359997 
" clip-path="url(#p92c574d690)" style="fill: none; stroke: #000000; stroke-width: 0.5; stroke-linecap: round"/>
   </g>
   <g id="line2d_164">
    <path d="M 121.209087 125.604739 
L 145.50505 138.185418 
" clip-path="url(#p92c574d690)" style="fill: none; stroke: #949494; stroke-width: 0.5; stroke-linecap: round"/>
   </g>
   <g id="line2d_165">
    <path d="M 121.209087 125.604739 
L 92.398904 130.927297 
" clip-path="url(#p92c574d690)" style="fill: none; stroke: #949494; stroke-width: 0.5; stroke-linecap: round"/>
   </g>
   <g id="line2d_166">
    <path d="M 88.21742 156.298371 
L 92.398904 130.927297 
" clip-path="url(#p92c574d690)" style="fill: none; stroke: #000000; stroke-width: 0.5; stroke-linecap: round"/>
   </g>
   <g id="line2d_167">
    <path d="M 370.351027 166.132876 
L 359.065244 157.715138 
" clip-path="url(#p92c574d690)" style="fill: none; stroke: #949494; stroke-width: 0.5; stroke-linecap: round"/>
   </g>
   <g id="line2d_168">
    <path d="M 295.500906 291.952544 
L 289.500142 286.973594 
" clip-path="url(#p92c574d690)" style="fill: none; stroke: #000000; stroke-width: 0.5; stroke-linecap: round"/>
   </g>
   <g id="line2d_169">
    <path d="M 280.627501 148.24782 
L 259.131926 172.479091 
" clip-path="url(#p92c574d690)" style="fill: none; stroke: #000000; stroke-width: 0.5; stroke-linecap: round"/>
   </g>
   <g id="line2d_170">
    <path d="M 280.627501 148.24782 
L 280.21902 144.593869 
" clip-path="url(#p92c574d690)" style="fill: none; stroke: #000000; stroke-width: 0.5; stroke-linecap: round"/>
   </g>
   <g id="line2d_171">
    <path d="M 194.217397 55.48157 
L 190.648651 63.814361 
" clip-path="url(#p92c574d690)" style="fill: none; stroke: #949494; stroke-width: 0.5; stroke-linecap: round"/>
   </g>
   <g id="line2d_172">
    <path d="M 85.332723 293.207089 
L 113.880466 246.365093 
" clip-path="url(#p92c574d690)" style="fill: none; stroke: #000000; stroke-width: 0.5; stroke-linecap: round"/>
   </g>
   <g id="line2d_173">
    <path d="M 85.332723 293.207089 
L 73.957159 250.893839 
" clip-path="url(#p92c574d690)" style="fill: none; stroke: #949494; stroke-width: 0.5; stroke-linecap: round"/>
   </g>
   <g id="line2d_174">
    <path d="M 386.994669 252.712977 
L 373.113061 256.567471 
" clip-path="url(#p92c574d690)" style="fill: none; stroke: #000000; stroke-width: 0.5; stroke-linecap: round"/>
   </g>
   <g id="line2d_175">
    <path d="M 334.702068 66.277862 
L 292.907699 58.944453 
" clip-path="url(#p92c574d690)" style="fill: none; stroke: #949494; stroke-width: 0.5; stroke-linecap: round"/>
   </g>
   <g id="line2d_176">
    <path d="M 106.574155 234.131885 
L 138.499365 209.678198 
" clip-path="url(#p92c574d690)" style="fill: none; stroke: #000000; stroke-width: 0.5; stroke-linecap: round"/>
   </g>
   <g id="line2d_177">
    <path d="M 106.574155 234.131885 
L 88.368286 228.934671 
" clip-path="url(#p92c574d690)" style="fill: none; stroke: #949494; stroke-width: 0.5; stroke-linecap: round"/>
   </g>
   <g id="line2d_178">
    <path d="M 145.50505 138.185418 
L 155.246193 150.614717 
" clip-path="url(#p92c574d690)" style="fill: none; stroke: #000000; stroke-width: 0.5; stroke-linecap: round"/>
   </g>
   <g id="line2d_179">
    <path d="M 187.742682 253.866806 
L 217.764069 255.229973 
" clip-path="url(#p92c574d690)" style="fill: none; stroke: #949494; stroke-width: 0.5; stroke-linecap: round"/>
   </g>
   <g id="line2d_180">
    <path d="M 187.742682 253.866806 
L 182.557855 239.215218 
" clip-path="url(#p92c574d690)" style="fill: none; stroke: #949494; stroke-width: 0.5; stroke-linecap: round"/>
   </g>
   <g id="line2d_181">
    <path d="M 138.499365 209.678198 
L 175.068601 210.026183 
" clip-path="url(#p92c574d690)" style="fill: none; stroke: #949494; stroke-width: 0.5; stroke-linecap: round"/>
   </g>
   <g id="line2d_182">
    <path d="M 349.278189 213.705102 
L 346.745386 236.359997 
" clip-path="url(#p92c574d690)" style="fill: none; stroke: #949494; stroke-width: 0.5; stroke-linecap: round"/>
   </g>
   <g id="line2d_183">
    <path d="M 155.246193 150.614717 
L 175.068601 210.026183 
" clip-path="url(#p92c574d690)" style="fill: none; stroke: #949494; stroke-width: 0.5; stroke-linecap: round"/>
   </g>
   <g id="line2d_184">
    <path d="M 155.246193 150.614717 
L 208.663033 137.216759 
" clip-path="url(#p92c574d690)" style="fill: none; stroke: #000000; stroke-width: 2.142857; stroke-linecap: round"/>
   </g>
   <g id="line2d_185">
    <path d="M 155.246193 150.614717 
L 208.659251 198.841177 
" clip-path="url(#p92c574d690)" style="fill: none; stroke: #949494; stroke-width: 0.5; stroke-linecap: round"/>
   </g>
   <g id="line2d_186">
    <path d="M 227.326856 196.947485 
L 208.659251 198.841177 
" clip-path="url(#p92c574d690)" style="fill: none; stroke: #000000; stroke-width: 1.190476; stroke-linecap: round"/>
   </g>
   <g id="line2d_187">
    <path d="M 175.068601 210.026183 
L 188.372862 227.200532 
" clip-path="url(#p92c574d690)" style="fill: none; stroke: #949494; stroke-width: 0.5; stroke-linecap: round"/>
   </g>
   <g id="line2d_188">
    <path d="M 175.068601 210.026183 
L 208.659251 198.841177 
" clip-path="url(#p92c574d690)" style="fill: none; stroke: #000000; stroke-width: 0.5; stroke-linecap: round"/>
   </g>
   <g id="line2d_189">
    <path d="M 256.354731 295.488 
L 289.500142 286.973594 
" clip-path="url(#p92c574d690)" style="fill: none; stroke: #000000; stroke-width: 0.5; stroke-linecap: round"/>
   </g>
   <g id="line2d_190">
    <path d="M 315.397236 215.290795 
L 306.929454 202.373997 
" clip-path="url(#p92c574d690)" style="fill: none; stroke: #949494; stroke-width: 0.5; stroke-linecap: round"/>
   </g>
   <g id="line2d_191">
    <path d="M 88.368286 228.934671 
L 73.957159 250.893839 
" clip-path="url(#p92c574d690)" style="fill: none; stroke: #949494; stroke-width: 0.5; stroke-linecap: round"/>
   </g>
   <g id="line2d_192">
    <path d="M 151.802013 62.27143 
L 190.648651 63.814361 
" clip-path="url(#p92c574d690)" style="fill: none; stroke: #949494; stroke-width: 0.5; stroke-linecap: round"/>
   </g>
   <g id="line2d_193">
    <path d="M 188.372862 227.200532 
L 182.557855 239.215218 
" clip-path="url(#p92c574d690)" style="fill: none; stroke: #949494; stroke-width: 0.5; stroke-linecap: round"/>
   </g>
   <g id="line2d_194">
    <path d="M 188.372862 227.200532 
L 208.659251 198.841177 
" clip-path="url(#p92c574d690)" style="fill: none; stroke: #000000; stroke-width: 0.5; stroke-linecap: round"/>
   </g>
   <g id="line2d_195">
    <path d="M 306.929454 202.373997 
L 281.410331 204.6968 
" clip-path="url(#p92c574d690)" style="fill: none; stroke: #000000; stroke-width: 0.5; stroke-linecap: round"/>
   </g>
   <g id="line2d_196">
    <path d="M 281.410331 204.6968 
L 302.430579 194.884504 
" clip-path="url(#p92c574d690)" style="fill: none; stroke: #949494; stroke-width: 0.5; stroke-linecap: round"/>
   </g>
   <g id="line2d_197">
    <defs>
     <path id="mba1f65b931" d="M 0 2.5 
C 0.663008 2.5 1.29895 2.236584 1.767767 1.767767 
C 2.236584 1.29895 2.5 0.663008 2.5 0 
C 2.5 -0.663008 2.236584 -1.29895 1.767767 -1.767767 
C 1.29895 -2.236584 0.663008 -2.5 0 -2.5 
C -0.663008 -2.5 -1.29895 -2.236584 -1.767767 -1.767767 
C -2.236584 -1.29895 -2.5 -0.663008 -2.5 0 
C -2.5 0.663008 -2.236584 1.29895 -1.767767 1.767767 
C -1.29895 2.236584 -0.663008 2.5 0 2.5 
z
" style="stroke: #0000ff"/>
    </defs>
    <g clip-path="url(#p92c574d690)">
     <use xlink:href="#mba1f65b931" x="348.951046" y="110.659192" style="fill: #0000ff; stroke: #0000ff"/>
    </g>
   </g>
   <g id="line2d_198">
    <g clip-path="url(#p92c574d690)">
     <use xlink:href="#mba1f65b931" x="210.670632" y="234.380583" style="fill: #0000ff; stroke: #0000ff"/>
    </g>
   </g>
   <g id="line2d_199">
    <g clip-path="url(#p92c574d690)">
     <use xlink:href="#mba1f65b931" x="240.262374" y="198.179959" style="fill: #0000ff; stroke: #0000ff"/>
    </g>
   </g>
   <g id="line2d_200">
    <g clip-path="url(#p92c574d690)">
     <use xlink:href="#mba1f65b931" x="329.172812" y="223.373935" style="fill: #0000ff; stroke: #0000ff"/>
    </g>
   </g>
   <g id="line2d_201">
    <g clip-path="url(#p92c574d690)">
     <use xlink:href="#mba1f65b931" x="228.948812" y="153.939164" style="fill: #0000ff; stroke: #0000ff"/>
    </g>
   </g>
   <g id="line2d_202">
    <g clip-path="url(#p92c574d690)">
     <use xlink:href="#mba1f65b931" x="369.730135" y="173.44927" style="fill: #0000ff; stroke: #0000ff"/>
    </g>
   </g>
   <g id="line2d_203">
    <g clip-path="url(#p92c574d690)">
     <use xlink:href="#mba1f65b931" x="165.408991" y="111.192269" style="fill: #0000ff; stroke: #0000ff"/>
    </g>
   </g>
   <g id="line2d_204">
    <g clip-path="url(#p92c574d690)">
     <use xlink:href="#mba1f65b931" x="275.201695" y="236.465691" style="fill: #0000ff; stroke: #0000ff"/>
    </g>
   </g>
   <g id="line2d_205">
    <g clip-path="url(#p92c574d690)">
     <use xlink:href="#mba1f65b931" x="370.263019" y="54.919083" style="fill: #0000ff; stroke: #0000ff"/>
    </g>
   </g>
   <g id="line2d_206">
    <g clip-path="url(#p92c574d690)">
     <use xlink:href="#mba1f65b931" x="337.791849" y="74.906272" style="fill: #0000ff; stroke: #0000ff"/>
    </g>
   </g>
   <g id="line2d_207">
    <g clip-path="url(#p92c574d690)">
     <use xlink:href="#mba1f65b931" x="174.64499" y="117.631359" style="fill: #0000ff; stroke: #0000ff"/>
    </g>
   </g>
   <g id="line2d_208">
    <g clip-path="url(#p92c574d690)">
     <use xlink:href="#mba1f65b931" x="366.704313" y="128.997947" style="fill: #0000ff; stroke: #0000ff"/>
    </g>
   </g>
   <g id="line2d_209">
    <g clip-path="url(#p92c574d690)">
     <use xlink:href="#mba1f65b931" x="227.495625" y="273.605373" style="fill: #0000ff; stroke: #0000ff"/>
    </g>
   </g>
   <g id="line2d_210">
    <g clip-path="url(#p92c574d690)">
     <use xlink:href="#mba1f65b931" x="215.107691" y="147.120142" style="fill: #0000ff; stroke: #0000ff"/>
    </g>
   </g>
   <g id="line2d_211">
    <g clip-path="url(#p92c574d690)">
     <use xlink:href="#mba1f65b931" x="371.328153" y="58.930206" style="fill: #0000ff; stroke: #0000ff"/>
    </g>
   </g>
   <g id="line2d_212">
    <g clip-path="url(#p92c574d690)">
     <use xlink:href="#mba1f65b931" x="229.083495" y="84.043615" style="fill: #0000ff; stroke: #0000ff"/>
    </g>
   </g>
   <g id="line2d_213">
    <g clip-path="url(#p92c574d690)">
     <use xlink:href="#mba1f65b931" x="158.445048" y="98.988751" style="fill: #0000ff; stroke: #0000ff"/>
    </g>
   </g>
   <g id="line2d_214">
    <g clip-path="url(#p92c574d690)">
     <use xlink:href="#mba1f65b931" x="252.472079" y="295.089994" style="fill: #0000ff; stroke: #0000ff"/>
    </g>
   </g>
   <g id="line2d_215">
    <g clip-path="url(#p92c574d690)">
     <use xlink:href="#mba1f65b931" x="308.262287" y="199.694898" style="fill: #0000ff; stroke: #0000ff"/>
    </g>
   </g>
   <g id="line2d_216">
    <g clip-path="url(#p92c574d690)">
     <use xlink:href="#mba1f65b931" x="342.564124" y="132.922701" style="fill: #0000ff; stroke: #0000ff"/>
    </g>
   </g>
   <g id="line2d_217">
    <g clip-path="url(#p92c574d690)">
     <use xlink:href="#mba1f65b931" x="73.832727" y="176.20341" style="fill: #0000ff; stroke: #0000ff"/>
    </g>
   </g>
   <g id="line2d_218">
    <g clip-path="url(#p92c574d690)">
     <use xlink:href="#mba1f65b931" x="356.513782" y="238.100838" style="fill: #0000ff; stroke: #0000ff"/>
    </g>
   </g>
   <g id="line2d_219">
    <g clip-path="url(#p92c574d690)">
     <use xlink:href="#mba1f65b931" x="179.557242" y="82.764025" style="fill: #0000ff; stroke: #0000ff"/>
    </g>
   </g>
   <g id="line2d_220">
    <g clip-path="url(#p92c574d690)">
     <use xlink:href="#mba1f65b931" x="135.795191" y="157.873975" style="fill: #0000ff; stroke: #0000ff"/>
    </g>
   </g>
   <g id="line2d_221">
    <g clip-path="url(#p92c574d690)">
     <use xlink:href="#mba1f65b931" x="151.307916" y="58.698678" style="fill: #0000ff; stroke: #0000ff"/>
    </g>
   </g>
   <g id="line2d_222">
    <g clip-path="url(#p92c574d690)">
     <use xlink:href="#mba1f65b931" x="335.49579" y="187.510617" style="fill: #0000ff; stroke: #0000ff"/>
    </g>
   </g>
   <g id="line2d_223">
    <g clip-path="url(#p92c574d690)">
     <use xlink:href="#mba1f65b931" x="99.705193" y="219.223289" style="fill: #0000ff; stroke: #0000ff"/>
    </g>
   </g>
   <g id="line2d_224">
    <g clip-path="url(#p92c574d690)">
     <use xlink:href="#mba1f65b931" x="239.174636" y="67.303094" style="fill: #0000ff; stroke: #0000ff"/>
    </g>
   </g>
   <g id="line2d_225">
    <g clip-path="url(#p92c574d690)">
     <use xlink:href="#mba1f65b931" x="109.039817" y="161.901062" style="fill: #0000ff; stroke: #0000ff"/>
    </g>
   </g>
   <g id="line2d_226">
    <g clip-path="url(#p92c574d690)">
     <use xlink:href="#mba1f65b931" x="303.974316" y="162.849687" style="fill: #0000ff; stroke: #0000ff"/>
    </g>
   </g>
   <g id="line2d_227">
    <g clip-path="url(#p92c574d690)">
     <use xlink:href="#mba1f65b931" x="339.178283" y="164.624125" style="fill: #0000ff; stroke: #0000ff"/>
    </g>
   </g>
   <g id="line2d_228">
    <g clip-path="url(#p92c574d690)">
     <use xlink:href="#mba1f65b931" x="387.910535" y="149.029459" style="fill: #0000ff; stroke: #0000ff"/>
    </g>
   </g>
   <g id="line2d_229">
    <g clip-path="url(#p92c574d690)">
     <use xlink:href="#mba1f65b931" x="265.16893" y="188.249553" style="fill: #0000ff; stroke: #0000ff"/>
    </g>
   </g>
   <g id="line2d_230">
    <g clip-path="url(#p92c574d690)">
     <use xlink:href="#mba1f65b931" x="267.997437" y="203.146538" style="fill: #0000ff; stroke: #0000ff"/>
    </g>
   </g>
   <g id="line2d_231">
    <g clip-path="url(#p92c574d690)">
     <use xlink:href="#mba1f65b931" x="261.265027" y="226.592735" style="fill: #0000ff; stroke: #0000ff"/>
    </g>
   </g>
   <g id="line2d_232">
    <g clip-path="url(#p92c574d690)">
     <use xlink:href="#mba1f65b931" x="135.248476" y="252.277236" style="fill: #0000ff; stroke: #0000ff"/>
    </g>
   </g>
   <g id="line2d_233">
    <g clip-path="url(#p92c574d690)">
     <use xlink:href="#mba1f65b931" x="273.376069" y="135.772247" style="fill: #0000ff; stroke: #0000ff"/>
    </g>
   </g>
   <g id="line2d_234">
    <g clip-path="url(#p92c574d690)">
     <use xlink:href="#mba1f65b931" x="228.927292" y="276.30196" style="fill: #0000ff; stroke: #0000ff"/>
    </g>
   </g>
   <g id="line2d_235">
    <g clip-path="url(#p92c574d690)">
     <use xlink:href="#mba1f65b931" x="320.626847" y="81.202342" style="fill: #0000ff; stroke: #0000ff"/>
    </g>
   </g>
   <g id="line2d_236">
    <g clip-path="url(#p92c574d690)">
     <use xlink:href="#mba1f65b931" x="374.711336" y="89.708513" style="fill: #0000ff; stroke: #0000ff"/>
    </g>
   </g>
   <g id="line2d_237">
    <g clip-path="url(#p92c574d690)">
     <use xlink:href="#mba1f65b931" x="366.487304" y="69.720657" style="fill: #0000ff; stroke: #0000ff"/>
    </g>
   </g>
   <g id="line2d_238">
    <g clip-path="url(#p92c574d690)">
     <use xlink:href="#mba1f65b931" x="249.82967" y="201.561113" style="fill: #0000ff; stroke: #0000ff"/>
    </g>
   </g>
   <g id="line2d_239">
    <g clip-path="url(#p92c574d690)">
     <use xlink:href="#mba1f65b931" x="303.557368" y="230.236013" style="fill: #0000ff; stroke: #0000ff"/>
    </g>
   </g>
   <g id="line2d_240">
    <g clip-path="url(#p92c574d690)">
     <use xlink:href="#mba1f65b931" x="338.25234" y="87.966691" style="fill: #0000ff; stroke: #0000ff"/>
    </g>
   </g>
   <g id="line2d_241">
    <g clip-path="url(#p92c574d690)">
     <use xlink:href="#mba1f65b931" x="365.464792" y="152.34773" style="fill: #0000ff; stroke: #0000ff"/>
    </g>
   </g>
   <g id="line2d_242">
    <g clip-path="url(#p92c574d690)">
     <use xlink:href="#mba1f65b931" x="383.319023" y="154.853252" style="fill: #0000ff; stroke: #0000ff"/>
    </g>
   </g>
   <g id="line2d_243">
    <g clip-path="url(#p92c574d690)">
     <use xlink:href="#mba1f65b931" x="220.455315" y="134.883208" style="fill: #0000ff; stroke: #0000ff"/>
    </g>
   </g>
   <g id="line2d_244">
    <g clip-path="url(#p92c574d690)">
     <use xlink:href="#mba1f65b931" x="398.487273" y="71.243188" style="fill: #0000ff; stroke: #0000ff"/>
    </g>
   </g>
   <g id="line2d_245">
    <g clip-path="url(#p92c574d690)">
     <use xlink:href="#mba1f65b931" x="332.280814" y="278.149304" style="fill: #0000ff; stroke: #0000ff"/>
    </g>
   </g>
   <g id="line2d_246">
    <g clip-path="url(#p92c574d690)">
     <use xlink:href="#mba1f65b931" x="273.379307" y="177.971988" style="fill: #0000ff; stroke: #0000ff"/>
    </g>
   </g>
   <g id="line2d_247">
    <g clip-path="url(#p92c574d690)">
     <use xlink:href="#mba1f65b931" x="279.044359" y="89.059619" style="fill: #0000ff; stroke: #0000ff"/>
    </g>
   </g>
   <g id="line2d_248">
    <g clip-path="url(#p92c574d690)">
     <use xlink:href="#mba1f65b931" x="152.749834" y="117.220438" style="fill: #0000ff; stroke: #0000ff"/>
    </g>
   </g>
   <g id="line2d_249">
    <g clip-path="url(#p92c574d690)">
     <use xlink:href="#mba1f65b931" x="111.674744" y="243.914646" style="fill: #0000ff; stroke: #0000ff"/>
    </g>
   </g>
   <g id="line2d_250">
    <g clip-path="url(#p92c574d690)">
     <use xlink:href="#mba1f65b931" x="332.691198" y="216.128865" style="fill: #0000ff; stroke: #0000ff"/>
    </g>
   </g>
   <g id="line2d_251">
    <g clip-path="url(#p92c574d690)">
     <use xlink:href="#mba1f65b931" x="339.650114" y="273.6286" style="fill: #0000ff; stroke: #0000ff"/>
    </g>
   </g>
   <g id="line2d_252">
    <g clip-path="url(#p92c574d690)">
     <use xlink:href="#mba1f65b931" x="121.209087" y="125.604739" style="fill: #0000ff; stroke: #0000ff"/>
    </g>
   </g>
   <g id="line2d_253">
    <g clip-path="url(#p92c574d690)">
     <use xlink:href="#mba1f65b931" x="88.21742" y="156.298371" style="fill: #0000ff; stroke: #0000ff"/>
    </g>
   </g>
   <g id="line2d_254">
    <g clip-path="url(#p92c574d690)">
     <use xlink:href="#mba1f65b931" x="370.351027" y="166.132876" style="fill: #0000ff; stroke: #0000ff"/>
    </g>
   </g>
   <g id="line2d_255">
    <g clip-path="url(#p92c574d690)">
     <use xlink:href="#mba1f65b931" x="295.500906" y="291.952544" style="fill: #0000ff; stroke: #0000ff"/>
    </g>
   </g>
   <g id="line2d_256">
    <g clip-path="url(#p92c574d690)">
     <use xlink:href="#mba1f65b931" x="280.627501" y="148.24782" style="fill: #0000ff; stroke: #0000ff"/>
    </g>
   </g>
   <g id="line2d_257">
    <g clip-path="url(#p92c574d690)">
     <use xlink:href="#mba1f65b931" x="261.363533" y="201.582593" style="fill: #0000ff; stroke: #0000ff"/>
    </g>
   </g>
   <g id="line2d_258">
    <g clip-path="url(#p92c574d690)">
     <use xlink:href="#mba1f65b931" x="194.217397" y="55.48157" style="fill: #0000ff; stroke: #0000ff"/>
    </g>
   </g>
   <g id="line2d_259">
    <g clip-path="url(#p92c574d690)">
     <use xlink:href="#mba1f65b931" x="85.332723" y="293.207089" style="fill: #0000ff; stroke: #0000ff"/>
    </g>
   </g>
   <g id="line2d_260">
    <g clip-path="url(#p92c574d690)">
     <use xlink:href="#mba1f65b931" x="386.994669" y="252.712977" style="fill: #0000ff; stroke: #0000ff"/>
    </g>
   </g>
   <g id="line2d_261">
    <g clip-path="url(#p92c574d690)">
     <use xlink:href="#mba1f65b931" x="113.880466" y="246.365093" style="fill: #0000ff; stroke: #0000ff"/>
    </g>
   </g>
   <g id="line2d_262">
    <g clip-path="url(#p92c574d690)">
     <use xlink:href="#mba1f65b931" x="334.702068" y="66.277862" style="fill: #0000ff; stroke: #0000ff"/>
    </g>
   </g>
   <g id="line2d_263">
    <g clip-path="url(#p92c574d690)">
     <use xlink:href="#mba1f65b931" x="80.89266" y="193.051811" style="fill: #0000ff; stroke: #0000ff"/>
    </g>
   </g>
   <g id="line2d_264">
    <g clip-path="url(#p92c574d690)">
     <use xlink:href="#mba1f65b931" x="106.574155" y="234.131885" style="fill: #0000ff; stroke: #0000ff"/>
    </g>
   </g>
   <g id="line2d_265">
    <g clip-path="url(#p92c574d690)">
     <use xlink:href="#mba1f65b931" x="145.50505" y="138.185418" style="fill: #0000ff; stroke: #0000ff"/>
    </g>
   </g>
   <g id="line2d_266">
    <g clip-path="url(#p92c574d690)">
     <use xlink:href="#mba1f65b931" x="187.742682" y="253.866806" style="fill: #0000ff; stroke: #0000ff"/>
    </g>
   </g>
   <g id="line2d_267">
    <g clip-path="url(#p92c574d690)">
     <use xlink:href="#mba1f65b931" x="237.770419" y="288.808444" style="fill: #0000ff; stroke: #0000ff"/>
    </g>
   </g>
   <g id="line2d_268">
    <g clip-path="url(#p92c574d690)">
     <use xlink:href="#mba1f65b931" x="106.385264" y="53.568" style="fill: #0000ff; stroke: #0000ff"/>
    </g>
   </g>
   <g id="line2d_269">
    <g clip-path="url(#p92c574d690)">
     <use xlink:href="#mba1f65b931" x="138.499365" y="209.678198" style="fill: #0000ff; stroke: #0000ff"/>
    </g>
   </g>
   <g id="line2d_270">
    <g clip-path="url(#p92c574d690)">
     <use xlink:href="#mba1f65b931" x="312.14256" y="90.733329" style="fill: #0000ff; stroke: #0000ff"/>
    </g>
   </g>
   <g id="line2d_271">
    <g clip-path="url(#p92c574d690)">
     <use xlink:href="#mba1f65b931" x="373.113061" y="256.567471" style="fill: #0000ff; stroke: #0000ff"/>
    </g>
   </g>
   <g id="line2d_272">
    <g clip-path="url(#p92c574d690)">
     <use xlink:href="#mba1f65b931" x="292.907699" y="58.944453" style="fill: #0000ff; stroke: #0000ff"/>
    </g>
   </g>
   <g id="line2d_273">
    <g clip-path="url(#p92c574d690)">
     <use xlink:href="#mba1f65b931" x="92.398904" y="130.927297" style="fill: #0000ff; stroke: #0000ff"/>
    </g>
   </g>
   <g id="line2d_274">
    <g clip-path="url(#p92c574d690)">
     <use xlink:href="#mba1f65b931" x="349.278189" y="213.705102" style="fill: #0000ff; stroke: #0000ff"/>
    </g>
   </g>
   <g id="line2d_275">
    <g clip-path="url(#p92c574d690)">
     <use xlink:href="#mba1f65b931" x="155.246193" y="150.614717" style="fill: #0000ff; stroke: #0000ff"/>
    </g>
   </g>
   <g id="line2d_276">
    <g clip-path="url(#p92c574d690)">
     <use xlink:href="#mba1f65b931" x="217.764069" y="255.229973" style="fill: #0000ff; stroke: #0000ff"/>
    </g>
   </g>
   <g id="line2d_277">
    <g clip-path="url(#p92c574d690)">
     <use xlink:href="#mba1f65b931" x="227.326856" y="196.947485" style="fill: #0000ff; stroke: #0000ff"/>
    </g>
   </g>
   <g id="line2d_278">
    <g clip-path="url(#p92c574d690)">
     <use xlink:href="#mba1f65b931" x="259.131926" y="172.479091" style="fill: #0000ff; stroke: #0000ff"/>
    </g>
   </g>
   <g id="line2d_279">
    <g clip-path="url(#p92c574d690)">
     <use xlink:href="#mba1f65b931" x="175.068601" y="210.026183" style="fill: #0000ff; stroke: #0000ff"/>
    </g>
   </g>
   <g id="line2d_280">
    <g clip-path="url(#p92c574d690)">
     <use xlink:href="#mba1f65b931" x="346.745386" y="236.359997" style="fill: #0000ff; stroke: #0000ff"/>
    </g>
   </g>
   <g id="line2d_281">
    <g clip-path="url(#p92c574d690)">
     <use xlink:href="#mba1f65b931" x="256.354731" y="295.488" style="fill: #0000ff; stroke: #0000ff"/>
    </g>
   </g>
   <g id="line2d_282">
    <g clip-path="url(#p92c574d690)">
     <use xlink:href="#mba1f65b931" x="315.397236" y="215.290795" style="fill: #0000ff; stroke: #0000ff"/>
    </g>
   </g>
   <g id="line2d_283">
    <g clip-path="url(#p92c574d690)">
     <use xlink:href="#mba1f65b931" x="88.368286" y="228.934671" style="fill: #0000ff; stroke: #0000ff"/>
    </g>
   </g>
   <g id="line2d_284">
    <g clip-path="url(#p92c574d690)">
     <use xlink:href="#mba1f65b931" x="151.802013" y="62.27143" style="fill: #0000ff; stroke: #0000ff"/>
    </g>
   </g>
   <g id="line2d_285">
    <g clip-path="url(#p92c574d690)">
     <use xlink:href="#mba1f65b931" x="188.372862" y="227.200532" style="fill: #0000ff; stroke: #0000ff"/>
    </g>
   </g>
   <g id="line2d_286">
    <g clip-path="url(#p92c574d690)">
     <use xlink:href="#mba1f65b931" x="190.648651" y="63.814361" style="fill: #0000ff; stroke: #0000ff"/>
    </g>
   </g>
   <g id="line2d_287">
    <g clip-path="url(#p92c574d690)">
     <use xlink:href="#mba1f65b931" x="280.21902" y="144.593869" style="fill: #0000ff; stroke: #0000ff"/>
    </g>
   </g>
   <g id="line2d_288">
    <g clip-path="url(#p92c574d690)">
     <use xlink:href="#mba1f65b931" x="306.929454" y="202.373997" style="fill: #0000ff; stroke: #0000ff"/>
    </g>
   </g>
   <g id="line2d_289">
    <g clip-path="url(#p92c574d690)">
     <use xlink:href="#mba1f65b931" x="208.663033" y="137.216759" style="fill: #0000ff; stroke: #0000ff"/>
    </g>
   </g>
   <g id="line2d_290">
    <g clip-path="url(#p92c574d690)">
     <use xlink:href="#mba1f65b931" x="73.957159" y="250.893839" style="fill: #0000ff; stroke: #0000ff"/>
    </g>
   </g>
   <g id="line2d_291">
    <g clip-path="url(#p92c574d690)">
     <use xlink:href="#mba1f65b931" x="182.557855" y="239.215218" style="fill: #0000ff; stroke: #0000ff"/>
    </g>
   </g>
   <g id="line2d_292">
    <g clip-path="url(#p92c574d690)">
     <use xlink:href="#mba1f65b931" x="281.410331" y="204.6968" style="fill: #0000ff; stroke: #0000ff"/>
    </g>
   </g>
   <g id="line2d_293">
    <g clip-path="url(#p92c574d690)">
     <use xlink:href="#mba1f65b931" x="359.065244" y="157.715138" style="fill: #0000ff; stroke: #0000ff"/>
    </g>
   </g>
   <g id="line2d_294">
    <g clip-path="url(#p92c574d690)">
     <use xlink:href="#mba1f65b931" x="208.659251" y="198.841177" style="fill: #0000ff; stroke: #0000ff"/>
    </g>
   </g>
   <g id="line2d_295">
    <g clip-path="url(#p92c574d690)">
     <use xlink:href="#mba1f65b931" x="302.430579" y="194.884504" style="fill: #0000ff; stroke: #0000ff"/>
    </g>
   </g>
   <g id="line2d_296">
    <g clip-path="url(#p92c574d690)">
     <use xlink:href="#mba1f65b931" x="289.500142" y="286.973594" style="fill: #0000ff; stroke: #0000ff"/>
    </g>
   </g>
   <g id="patch_3">
    <path d="M 57.6 307.584 
L 57.6 41.472 
" style="fill: none; stroke: #cccccc; stroke-linejoin: miter; stroke-linecap: square"/>
   </g>
   <g id="patch_4">
    <path d="M 414.72 307.584 
L 414.72 41.472 
" style="fill: none; stroke: #cccccc; stroke-linejoin: miter; stroke-linecap: square"/>
   </g>
   <g id="patch_5">
    <path d="M 57.6 307.584 
L 414.72 307.584 
" style="fill: none; stroke: #cccccc; stroke-linejoin: miter; stroke-linecap: square"/>
   </g>
   <g id="patch_6">
    <path d="M 57.6 41.472 
L 414.72 41.472 
" style="fill: none; stroke: #cccccc; stroke-linejoin: miter; stroke-linecap: square"/>
   </g>
   <g id="text_13">
    <!-- 0 -->
    <g style="fill: #808080" transform="translate(341.390108 108.659192)scale(0.1 -0.1)">
     <use xlink:href="#LiberationSans-30"/>
    </g>
   </g>
   <g id="text_14">
    <!-- 1 -->
    <g style="fill: #808080" transform="translate(203.109694 232.380583)scale(0.1 -0.1)">
     <use xlink:href="#LiberationSans-31"/>
    </g>
   </g>
   <g id="text_15">
    <!-- 2 -->
    <g style="fill: #808080" transform="translate(232.701436 196.179959)scale(0.1 -0.1)">
     <use xlink:href="#LiberationSans-32"/>
    </g>
   </g>
   <g id="text_16">
    <!-- 3 -->
    <g style="fill: #808080" transform="translate(321.611874 221.373935)scale(0.1 -0.1)">
     <defs>
      <path id="LiberationSans-33" d="M 3278 1216 
Q 3278 913 3179 675 
Q 3081 438 2892 273 
Q 2703 109 2423 23 
Q 2144 -63 1784 -63 
Q 1375 -63 1095 39 
Q 816 141 634 308 
Q 453 475 362 689 
Q 272 903 244 1131 
L 825 1184 
Q 850 1009 917 865 
Q 984 722 1100 619 
Q 1216 516 1384 459 
Q 1553 403 1784 403 
Q 2209 403 2451 612 
Q 2694 822 2694 1234 
Q 2694 1478 2586 1626 
Q 2478 1775 2317 1858 
Q 2156 1941 1967 1969 
Q 1778 1997 1619 1997 
L 1300 1997 
L 1300 2484 
L 1606 2484 
Q 1766 2484 1937 2517 
Q 2109 2550 2251 2636 
Q 2394 2722 2486 2869 
Q 2578 3016 2578 3244 
Q 2578 3597 2370 3801 
Q 2163 4006 1753 4006 
Q 1381 4006 1151 3815 
Q 922 3625 884 3278 
L 319 3322 
Q 353 3613 478 3828 
Q 603 4044 795 4186 
Q 988 4328 1234 4398 
Q 1481 4469 1759 4469 
Q 2128 4469 2393 4376 
Q 2659 4284 2828 4126 
Q 2997 3969 3076 3756 
Q 3156 3544 3156 3303 
Q 3156 3109 3103 2940 
Q 3050 2772 2937 2637 
Q 2825 2503 2651 2406 
Q 2478 2309 2234 2259 
L 2234 2247 
Q 2500 2219 2697 2126 
Q 2894 2034 3022 1896 
Q 3150 1759 3214 1584 
Q 3278 1409 3278 1216 
z
" transform="scale(0.015625)"/>
     </defs>
     <use xlink:href="#LiberationSans-33"/>
    </g>
   </g>
   <g id="text_17">
    <!-- 4 -->
    <g style="fill: #808080" transform="translate(221.387875 151.939164)scale(0.1 -0.1)">
     <use xlink:href="#LiberationSans-34"/>
    </g>
   </g>
   <g id="text_18">
    <!-- 5 -->
    <g style="fill: #808080" transform="translate(362.169197 171.44927)scale(0.1 -0.1)">
     <defs>
      <path id="LiberationSans-35" d="M 3291 1434 
Q 3291 1103 3191 828 
Q 3091 553 2894 354 
Q 2697 156 2405 46 
Q 2113 -63 1728 -63 
Q 1381 -63 1123 18 
Q 866 100 687 242 
Q 509 384 404 575 
Q 300 766 256 984 
L 825 1050 
Q 859 925 921 808 
Q 984 691 1092 598 
Q 1200 506 1358 451 
Q 1516 397 1741 397 
Q 1959 397 2137 464 
Q 2316 531 2442 662 
Q 2569 794 2637 984 
Q 2706 1175 2706 1422 
Q 2706 1625 2640 1795 
Q 2575 1966 2453 2089 
Q 2331 2213 2154 2281 
Q 1978 2350 1753 2350 
Q 1613 2350 1494 2325 
Q 1375 2300 1273 2256 
Q 1172 2213 1089 2155 
Q 1006 2097 934 2034 
L 384 2034 
L 531 4403 
L 3034 4403 
L 3034 3925 
L 1044 3925 
L 959 2528 
Q 1109 2644 1334 2726 
Q 1559 2809 1869 2809 
Q 2197 2809 2459 2709 
Q 2722 2609 2906 2426 
Q 3091 2244 3191 1991 
Q 3291 1738 3291 1434 
z
" transform="scale(0.015625)"/>
     </defs>
     <use xlink:href="#LiberationSans-35"/>
    </g>
   </g>
   <g id="text_19">
    <!-- 6 -->
    <g style="fill: #808080" transform="translate(157.848054 109.192269)scale(0.1 -0.1)">
     <use xlink:href="#LiberationSans-36"/>
    </g>
   </g>
   <g id="text_20">
    <!-- 7 -->
    <g style="fill: #808080" transform="translate(267.640757 234.465691)scale(0.1 -0.1)">
     <defs>
      <path id="LiberationSans-37" d="M 3238 3947 
Q 2906 3441 2628 2973 
Q 2350 2506 2150 2032 
Q 1950 1559 1839 1061 
Q 1728 563 1728 0 
L 1141 0 
Q 1141 528 1266 1036 
Q 1391 1544 1603 2033 
Q 1816 2522 2097 2994 
Q 2378 3466 2694 3925 
L 328 3925 
L 328 4403 
L 3238 4403 
L 3238 3947 
z
" transform="scale(0.015625)"/>
     </defs>
     <use xlink:href="#LiberationSans-37"/>
    </g>
   </g>
   <g id="text_21">
    <!-- 8 -->
    <g style="fill: #808080" transform="translate(362.702082 52.919083)scale(0.1 -0.1)">
     <use xlink:href="#LiberationSans-38"/>
    </g>
   </g>
   <g id="text_22">
    <!-- 9 -->
    <g style="fill: #808080" transform="translate(330.230912 72.906272)scale(0.1 -0.1)">
     <defs>
      <path id="LiberationSans-39" d="M 3256 2291 
Q 3256 1703 3145 1261 
Q 3034 819 2828 525 
Q 2622 231 2326 84 
Q 2031 -63 1663 -63 
Q 1409 -63 1206 -11 
Q 1003 41 843 150 
Q 684 259 571 434 
Q 459 609 391 856 
L 928 941 
Q 1016 656 1202 523 
Q 1388 391 1672 391 
Q 1900 391 2089 498 
Q 2278 606 2411 822 
Q 2544 1038 2619 1363 
Q 2694 1688 2700 2125 
Q 2634 1978 2520 1862 
Q 2406 1747 2261 1667 
Q 2116 1588 1947 1545 
Q 1778 1503 1606 1503 
Q 1306 1503 1064 1611 
Q 822 1719 653 1912 
Q 484 2106 392 2379 
Q 300 2653 300 2988 
Q 300 3328 398 3603 
Q 497 3878 684 4070 
Q 872 4263 1145 4366 
Q 1419 4469 1766 4469 
Q 2500 4469 2878 3925 
Q 3256 3381 3256 2291 
z
M 2644 2834 
Q 2644 3078 2586 3293 
Q 2528 3509 2414 3668 
Q 2300 3828 2133 3920 
Q 1966 4013 1747 4013 
Q 1544 4013 1381 3941 
Q 1219 3869 1106 3736 
Q 994 3603 933 3412 
Q 872 3222 872 2988 
Q 872 2766 926 2575 
Q 981 2384 1090 2245 
Q 1200 2106 1362 2026 
Q 1525 1947 1741 1947 
Q 1897 1947 2058 2000 
Q 2219 2053 2348 2162 
Q 2478 2272 2561 2439 
Q 2644 2606 2644 2834 
z
" transform="scale(0.015625)"/>
     </defs>
     <use xlink:href="#LiberationSans-39"/>
    </g>
   </g>
   <g id="text_23">
    <!-- 10 -->
    <g style="fill: #808080" transform="translate(161.523115 115.631359)scale(0.1 -0.1)">
     <use xlink:href="#LiberationSans-31"/>
     <use xlink:href="#LiberationSans-30" x="55.615234"/>
    </g>
   </g>
   <g id="text_24">
    <!-- 11 -->
    <g style="fill: #808080" transform="translate(353.582438 126.997947)scale(0.1 -0.1)">
     <use xlink:href="#LiberationSans-31"/>
     <use xlink:href="#LiberationSans-31" x="55.615234"/>
    </g>
   </g>
   <g id="text_25">
    <!-- 12 -->
    <g style="fill: #808080" transform="translate(214.37375 271.605373)scale(0.1 -0.1)">
     <use xlink:href="#LiberationSans-31"/>
     <use xlink:href="#LiberationSans-32" x="55.615234"/>
    </g>
   </g>
   <g id="text_26">
    <!-- 13 -->
    <g style="fill: #808080" transform="translate(201.985816 145.120142)scale(0.1 -0.1)">
     <use xlink:href="#LiberationSans-31"/>
     <use xlink:href="#LiberationSans-33" x="55.615234"/>
    </g>
   </g>
   <g id="text_27">
    <!-- 14 -->
    <g style="fill: #808080" transform="translate(358.206278 56.930206)scale(0.1 -0.1)">
     <use xlink:href="#LiberationSans-31"/>
     <use xlink:href="#LiberationSans-34" x="55.615234"/>
    </g>
   </g>
   <g id="text_28">
    <!-- 15 -->
    <g style="fill: #808080" transform="translate(215.96162 82.043615)scale(0.1 -0.1)">
     <use xlink:href="#LiberationSans-31"/>
     <use xlink:href="#LiberationSans-35" x="55.615234"/>
    </g>
   </g>
   <g id="text_29">
    <!-- 16 -->
    <g style="fill: #808080" transform="translate(145.323173 96.988751)scale(0.1 -0.1)">
     <use xlink:href="#LiberationSans-31"/>
     <use xlink:href="#LiberationSans-36" x="55.615234"/>
    </g>
   </g>
   <g id="text_30">
    <!-- 17 -->
    <g style="fill: #808080" transform="translate(239.350204 293.089994)scale(0.1 -0.1)">
     <use xlink:href="#LiberationSans-31"/>
     <use xlink:href="#LiberationSans-37" x="55.615234"/>
    </g>
   </g>
   <g id="text_31">
    <!-- 18 -->
    <g style="fill: #808080" transform="translate(295.140412 197.694898)scale(0.1 -0.1)">
     <use xlink:href="#LiberationSans-31"/>
     <use xlink:href="#LiberationSans-38" x="55.615234"/>
    </g>
   </g>
   <g id="text_32">
    <!-- 19 -->
    <g style="fill: #808080" transform="translate(329.442249 130.922701)scale(0.1 -0.1)">
     <use xlink:href="#LiberationSans-31"/>
     <use xlink:href="#LiberationSans-39" x="55.615234"/>
    </g>
   </g>
   <g id="text_33">
    <!-- 20 -->
    <g style="fill: #808080" transform="translate(60.710852 174.20341)scale(0.1 -0.1)">
     <use xlink:href="#LiberationSans-32"/>
     <use xlink:href="#LiberationSans-30" x="55.615234"/>
    </g>
   </g>
   <g id="text_34">
    <!-- 21 -->
    <g style="fill: #808080" transform="translate(343.391907 236.100838)scale(0.1 -0.1)">
     <use xlink:href="#LiberationSans-32"/>
     <use xlink:href="#LiberationSans-31" x="55.615234"/>
    </g>
   </g>
   <g id="text_35">
    <!-- 22 -->
    <g style="fill: #808080" transform="translate(166.435367 80.764025)scale(0.1 -0.1)">
     <use xlink:href="#LiberationSans-32"/>
     <use xlink:href="#LiberationSans-32" x="55.615234"/>
    </g>
   </g>
   <g id="text_36">
    <!-- 23 -->
    <g style="fill: #808080" transform="translate(122.673316 155.873975)scale(0.1 -0.1)">
     <use xlink:href="#LiberationSans-32"/>
     <use xlink:href="#LiberationSans-33" x="55.615234"/>
    </g>
   </g>
   <g id="text_37">
    <!-- 24 -->
    <g style="fill: #808080" transform="translate(138.186041 56.698678)scale(0.1 -0.1)">
     <use xlink:href="#LiberationSans-32"/>
     <use xlink:href="#LiberationSans-34" x="55.615234"/>
    </g>
   </g>
   <g id="text_38">
    <!-- 25 -->
    <g style="fill: #808080" transform="translate(322.373915 185.510617)scale(0.1 -0.1)">
     <use xlink:href="#LiberationSans-32"/>
     <use xlink:href="#LiberationSans-35" x="55.615234"/>
    </g>
   </g>
   <g id="text_39">
    <!-- 26 -->
    <g style="fill: #808080" transform="translate(86.583318 217.223289)scale(0.1 -0.1)">
     <use xlink:href="#LiberationSans-32"/>
     <use xlink:href="#LiberationSans-36" x="55.615234"/>
    </g>
   </g>
   <g id="text_40">
    <!-- 27 -->
    <g style="fill: #808080" transform="translate(226.052761 65.303094)scale(0.1 -0.1)">
     <use xlink:href="#LiberationSans-32"/>
     <use xlink:href="#LiberationSans-37" x="55.615234"/>
    </g>
   </g>
   <g id="text_41">
    <!-- 28 -->
    <g style="fill: #808080" transform="translate(95.917942 159.901062)scale(0.1 -0.1)">
     <use xlink:href="#LiberationSans-32"/>
     <use xlink:href="#LiberationSans-38" x="55.615234"/>
    </g>
   </g>
   <g id="text_42">
    <!-- 29 -->
    <g style="fill: #808080" transform="translate(290.852441 160.849687)scale(0.1 -0.1)">
     <use xlink:href="#LiberationSans-32"/>
     <use xlink:href="#LiberationSans-39" x="55.615234"/>
    </g>
   </g>
   <g id="text_43">
    <!-- 30 -->
    <g style="fill: #808080" transform="translate(326.056408 162.624125)scale(0.1 -0.1)">
     <use xlink:href="#LiberationSans-33"/>
     <use xlink:href="#LiberationSans-30" x="55.615234"/>
    </g>
   </g>
   <g id="text_44">
    <!-- 31 -->
    <g style="fill: #808080" transform="translate(374.78866 147.029459)scale(0.1 -0.1)">
     <use xlink:href="#LiberationSans-33"/>
     <use xlink:href="#LiberationSans-31" x="55.615234"/>
    </g>
   </g>
   <g id="text_45">
    <!-- 32 -->
    <g style="fill: #808080" transform="translate(252.047055 186.249553)scale(0.1 -0.1)">
     <use xlink:href="#LiberationSans-33"/>
     <use xlink:href="#LiberationSans-32" x="55.615234"/>
    </g>
   </g>
   <g id="text_46">
    <!-- 33 -->
    <g style="fill: #808080" transform="translate(254.875562 201.146538)scale(0.1 -0.1)">
     <use xlink:href="#LiberationSans-33"/>
     <use xlink:href="#LiberationSans-33" x="55.615234"/>
    </g>
   </g>
   <g id="text_47">
    <!-- 34 -->
    <g style="fill: #808080" transform="translate(248.143152 224.592735)scale(0.1 -0.1)">
     <use xlink:href="#LiberationSans-33"/>
     <use xlink:href="#LiberationSans-34" x="55.615234"/>
    </g>
   </g>
   <g id="text_48">
    <!-- 35 -->
    <g style="fill: #808080" transform="translate(122.126601 250.277236)scale(0.1 -0.1)">
     <use xlink:href="#LiberationSans-33"/>
     <use xlink:href="#LiberationSans-35" x="55.615234"/>
    </g>
   </g>
   <g id="text_49">
    <!-- 36 -->
    <g style="fill: #808080" transform="translate(260.254194 133.772247)scale(0.1 -0.1)">
     <use xlink:href="#LiberationSans-33"/>
     <use xlink:href="#LiberationSans-36" x="55.615234"/>
    </g>
   </g>
   <g id="text_50">
    <!-- 37 -->
    <g style="fill: #808080" transform="translate(215.805417 274.30196)scale(0.1 -0.1)">
     <use xlink:href="#LiberationSans-33"/>
     <use xlink:href="#LiberationSans-37" x="55.615234"/>
    </g>
   </g>
   <g id="text_51">
    <!-- 38 -->
    <g style="fill: #808080" transform="translate(307.504972 79.202342)scale(0.1 -0.1)">
     <use xlink:href="#LiberationSans-33"/>
     <use xlink:href="#LiberationSans-38" x="55.615234"/>
    </g>
   </g>
   <g id="text_52">
    <!-- 39 -->
    <g style="fill: #808080" transform="translate(361.589461 87.708513)scale(0.1 -0.1)">
     <use xlink:href="#LiberationSans-33"/>
     <use xlink:href="#LiberationSans-39" x="55.615234"/>
    </g>
   </g>
   <g id="text_53">
    <!-- 40 -->
    <g style="fill: #808080" transform="translate(353.365429 67.720657)scale(0.1 -0.1)">
     <use xlink:href="#LiberationSans-34"/>
     <use xlink:href="#LiberationSans-30" x="55.615234"/>
    </g>
   </g>
   <g id="text_54">
    <!-- 41 -->
    <g style="fill: #808080" transform="translate(236.707795 199.561113)scale(0.1 -0.1)">
     <use xlink:href="#LiberationSans-34"/>
     <use xlink:href="#LiberationSans-31" x="55.615234"/>
    </g>
   </g>
   <g id="text_55">
    <!-- 42 -->
    <g style="fill: #808080" transform="translate(290.435493 228.236013)scale(0.1 -0.1)">
     <use xlink:href="#LiberationSans-34"/>
     <use xlink:href="#LiberationSans-32" x="55.615234"/>
    </g>
   </g>
   <g id="text_56">
    <!-- 43 -->
    <g style="fill: #808080" transform="translate(325.130465 85.966691)scale(0.1 -0.1)">
     <use xlink:href="#LiberationSans-34"/>
     <use xlink:href="#LiberationSans-33" x="55.615234"/>
    </g>
   </g>
   <g id="text_57">
    <!-- 44 -->
    <g style="fill: #808080" transform="translate(352.342917 150.34773)scale(0.1 -0.1)">
     <use xlink:href="#LiberationSans-34"/>
     <use xlink:href="#LiberationSans-34" x="55.615234"/>
    </g>
   </g>
   <g id="text_58">
    <!-- 45 -->
    <g style="fill: #808080" transform="translate(370.197148 152.853252)scale(0.1 -0.1)">
     <use xlink:href="#LiberationSans-34"/>
     <use xlink:href="#LiberationSans-35" x="55.615234"/>
    </g>
   </g>
   <g id="text_59">
    <!-- 46 -->
    <g style="fill: #808080" transform="translate(207.33344 132.883208)scale(0.1 -0.1)">
     <use xlink:href="#LiberationSans-34"/>
     <use xlink:href="#LiberationSans-36" x="55.615234"/>
    </g>
   </g>
   <g id="text_60">
    <!-- 47 -->
    <g style="fill: #808080" transform="translate(385.365398 69.243188)scale(0.1 -0.1)">
     <use xlink:href="#LiberationSans-34"/>
     <use xlink:href="#LiberationSans-37" x="55.615234"/>
    </g>
   </g>
   <g id="text_61">
    <!-- 48 -->
    <g style="fill: #808080" transform="translate(319.158939 276.149304)scale(0.1 -0.1)">
     <use xlink:href="#LiberationSans-34"/>
     <use xlink:href="#LiberationSans-38" x="55.615234"/>
    </g>
   </g>
   <g id="text_62">
    <!-- 49 -->
    <g style="fill: #808080" transform="translate(260.257432 175.971988)scale(0.1 -0.1)">
     <use xlink:href="#LiberationSans-34"/>
     <use xlink:href="#LiberationSans-39" x="55.615234"/>
    </g>
   </g>
   <g id="text_63">
    <!-- 50 -->
    <g style="fill: #808080" transform="translate(265.922484 87.059619)scale(0.1 -0.1)">
     <use xlink:href="#LiberationSans-35"/>
     <use xlink:href="#LiberationSans-30" x="55.615234"/>
    </g>
   </g>
   <g id="text_64">
    <!-- 51 -->
    <g style="fill: #808080" transform="translate(139.627959 115.220438)scale(0.1 -0.1)">
     <use xlink:href="#LiberationSans-35"/>
     <use xlink:href="#LiberationSans-31" x="55.615234"/>
    </g>
   </g>
   <g id="text_65">
    <!-- 52 -->
    <g style="fill: #808080" transform="translate(98.552869 241.914646)scale(0.1 -0.1)">
     <use xlink:href="#LiberationSans-35"/>
     <use xlink:href="#LiberationSans-32" x="55.615234"/>
    </g>
   </g>
   <g id="text_66">
    <!-- 53 -->
    <g style="fill: #808080" transform="translate(319.569323 214.128865)scale(0.1 -0.1)">
     <use xlink:href="#LiberationSans-35"/>
     <use xlink:href="#LiberationSans-33" x="55.615234"/>
    </g>
   </g>
   <g id="text_67">
    <!-- 54 -->
    <g style="fill: #808080" transform="translate(326.528239 271.6286)scale(0.1 -0.1)">
     <use xlink:href="#LiberationSans-35"/>
     <use xlink:href="#LiberationSans-34" x="55.615234"/>
    </g>
   </g>
   <g id="text_68">
    <!-- 55 -->
    <g style="fill: #808080" transform="translate(108.087212 123.604739)scale(0.1 -0.1)">
     <use xlink:href="#LiberationSans-35"/>
     <use xlink:href="#LiberationSans-35" x="55.615234"/>
    </g>
   </g>
   <g id="text_69">
    <!-- 56 -->
    <g style="fill: #808080" transform="translate(75.095545 154.298371)scale(0.1 -0.1)">
     <use xlink:href="#LiberationSans-35"/>
     <use xlink:href="#LiberationSans-36" x="55.615234"/>
    </g>
   </g>
   <g id="text_70">
    <!-- 57 -->
    <g style="fill: #808080" transform="translate(357.229152 164.132876)scale(0.1 -0.1)">
     <use xlink:href="#LiberationSans-35"/>
     <use xlink:href="#LiberationSans-37" x="55.615234"/>
    </g>
   </g>
   <g id="text_71">
    <!-- 58 -->
    <g style="fill: #808080" transform="translate(282.379031 289.952544)scale(0.1 -0.1)">
     <use xlink:href="#LiberationSans-35"/>
     <use xlink:href="#LiberationSans-38" x="55.615234"/>
    </g>
   </g>
   <g id="text_72">
    <!-- 59 -->
    <g style="fill: #808080" transform="translate(267.505626 146.24782)scale(0.1 -0.1)">
     <use xlink:href="#LiberationSans-35"/>
     <use xlink:href="#LiberationSans-39" x="55.615234"/>
    </g>
   </g>
   <g id="text_73">
    <!-- 60 -->
    <g style="fill: #808080" transform="translate(248.241658 199.582593)scale(0.1 -0.1)">
     <use xlink:href="#LiberationSans-36"/>
     <use xlink:href="#LiberationSans-30" x="55.615234"/>
    </g>
   </g>
   <g id="text_74">
    <!-- 61 -->
    <g style="fill: #808080" transform="translate(181.095522 53.48157)scale(0.1 -0.1)">
     <use xlink:href="#LiberationSans-36"/>
     <use xlink:href="#LiberationSans-31" x="55.615234"/>
    </g>
   </g>
   <g id="text_75">
    <!-- 62 -->
    <g style="fill: #808080" transform="translate(72.210848 291.207089)scale(0.1 -0.1)">
     <use xlink:href="#LiberationSans-36"/>
     <use xlink:href="#LiberationSans-32" x="55.615234"/>
    </g>
   </g>
   <g id="text_76">
    <!-- 63 -->
    <g style="fill: #808080" transform="translate(373.872794 250.712977)scale(0.1 -0.1)">
     <use xlink:href="#LiberationSans-36"/>
     <use xlink:href="#LiberationSans-33" x="55.615234"/>
    </g>
   </g>
   <g id="text_77">
    <!-- 64 -->
    <g style="fill: #808080" transform="translate(100.758591 244.365093)scale(0.1 -0.1)">
     <use xlink:href="#LiberationSans-36"/>
     <use xlink:href="#LiberationSans-34" x="55.615234"/>
    </g>
   </g>
   <g id="text_78">
    <!-- 65 -->
    <g style="fill: #808080" transform="translate(321.580193 64.277862)scale(0.1 -0.1)">
     <use xlink:href="#LiberationSans-36"/>
     <use xlink:href="#LiberationSans-35" x="55.615234"/>
    </g>
   </g>
   <g id="text_79">
    <!-- 66 -->
    <g style="fill: #808080" transform="translate(67.770785 191.051811)scale(0.1 -0.1)">
     <use xlink:href="#LiberationSans-36"/>
     <use xlink:href="#LiberationSans-36" x="55.615234"/>
    </g>
   </g>
   <g id="text_80">
    <!-- 67 -->
    <g style="fill: #808080" transform="translate(93.45228 232.131885)scale(0.1 -0.1)">
     <use xlink:href="#LiberationSans-36"/>
     <use xlink:href="#LiberationSans-37" x="55.615234"/>
    </g>
   </g>
   <g id="text_81">
    <!-- 68 -->
    <g style="fill: #808080" transform="translate(132.383175 136.185418)scale(0.1 -0.1)">
     <use xlink:href="#LiberationSans-36"/>
     <use xlink:href="#LiberationSans-38" x="55.615234"/>
    </g>
   </g>
   <g id="text_82">
    <!-- 69 -->
    <g style="fill: #808080" transform="translate(174.620807 251.866806)scale(0.1 -0.1)">
     <use xlink:href="#LiberationSans-36"/>
     <use xlink:href="#LiberationSans-39" x="55.615234"/>
    </g>
   </g>
   <g id="text_83">
    <!-- 70 -->
    <g style="fill: #808080" transform="translate(224.648544 286.808444)scale(0.1 -0.1)">
     <use xlink:href="#LiberationSans-37"/>
     <use xlink:href="#LiberationSans-30" x="55.615234"/>
    </g>
   </g>
   <g id="text_84">
    <!-- 71 -->
    <g style="fill: #808080" transform="translate(93.263389 51.568)scale(0.1 -0.1)">
     <use xlink:href="#LiberationSans-37"/>
     <use xlink:href="#LiberationSans-31" x="55.615234"/>
    </g>
   </g>
   <g id="text_85">
    <!-- 72 -->
    <g style="fill: #808080" transform="translate(125.37749 207.678198)scale(0.1 -0.1)">
     <use xlink:href="#LiberationSans-37"/>
     <use xlink:href="#LiberationSans-32" x="55.615234"/>
    </g>
   </g>
   <g id="text_86">
    <!-- 73 -->
    <g style="fill: #808080" transform="translate(299.020685 88.733329)scale(0.1 -0.1)">
     <use xlink:href="#LiberationSans-37"/>
     <use xlink:href="#LiberationSans-33" x="55.615234"/>
    </g>
   </g>
   <g id="text_87">
    <!-- 74 -->
    <g style="fill: #808080" transform="translate(359.991186 254.567471)scale(0.1 -0.1)">
     <use xlink:href="#LiberationSans-37"/>
     <use xlink:href="#LiberationSans-34" x="55.615234"/>
    </g>
   </g>
   <g id="text_88">
    <!-- 75 -->
    <g style="fill: #808080" transform="translate(279.785824 56.944453)scale(0.1 -0.1)">
     <use xlink:href="#LiberationSans-37"/>
     <use xlink:href="#LiberationSans-35" x="55.615234"/>
    </g>
   </g>
   <g id="text_89">
    <!-- 76 -->
    <g style="fill: #808080" transform="translate(79.277029 128.927297)scale(0.1 -0.1)">
     <use xlink:href="#LiberationSans-37"/>
     <use xlink:href="#LiberationSans-36" x="55.615234"/>
    </g>
   </g>
   <g id="text_90">
    <!-- 77 -->
    <g style="fill: #808080" transform="translate(336.156314 211.705102)scale(0.1 -0.1)">
     <use xlink:href="#LiberationSans-37"/>
     <use xlink:href="#LiberationSans-37" x="55.615234"/>
    </g>
   </g>
   <g id="text_91">
    <!-- 78 -->
    <g style="fill: #808080" transform="translate(142.124318 148.614717)scale(0.1 -0.1)">
     <use xlink:href="#LiberationSans-37"/>
     <use xlink:href="#LiberationSans-38" x="55.615234"/>
    </g>
   </g>
   <g id="text_92">
    <!-- 79 -->
    <g style="fill: #808080" transform="translate(204.642194 253.229973)scale(0.1 -0.1)">
     <use xlink:href="#LiberationSans-37"/>
     <use xlink:href="#LiberationSans-39" x="55.615234"/>
    </g>
   </g>
   <g id="text_93">
    <!-- 80 -->
    <g style="fill: #808080" transform="translate(214.204981 194.947485)scale(0.1 -0.1)">
     <use xlink:href="#LiberationSans-38"/>
     <use xlink:href="#LiberationSans-30" x="55.615234"/>
    </g>
   </g>
   <g id="text_94">
    <!-- 81 -->
    <g style="fill: #808080" transform="translate(246.010051 170.479091)scale(0.1 -0.1)">
     <use xlink:href="#LiberationSans-38"/>
     <use xlink:href="#LiberationSans-31" x="55.615234"/>
    </g>
   </g>
   <g id="text_95">
    <!-- 82 -->
    <g style="fill: #808080" transform="translate(161.946726 208.026183)scale(0.1 -0.1)">
     <use xlink:href="#LiberationSans-38"/>
     <use xlink:href="#LiberationSans-32" x="55.615234"/>
    </g>
   </g>
   <g id="text_96">
    <!-- 83 -->
    <g style="fill: #808080" transform="translate(333.623511 234.359997)scale(0.1 -0.1)">
     <use xlink:href="#LiberationSans-38"/>
     <use xlink:href="#LiberationSans-33" x="55.615234"/>
    </g>
   </g>
   <g id="text_97">
    <!-- 84 -->
    <g style="fill: #808080" transform="translate(243.232856 293.488)scale(0.1 -0.1)">
     <use xlink:href="#LiberationSans-38"/>
     <use xlink:href="#LiberationSans-34" x="55.615234"/>
    </g>
   </g>
   <g id="text_98">
    <!-- 85 -->
    <g style="fill: #808080" transform="translate(302.275361 213.290795)scale(0.1 -0.1)">
     <use xlink:href="#LiberationSans-38"/>
     <use xlink:href="#LiberationSans-35" x="55.615234"/>
    </g>
   </g>
   <g id="text_99">
    <!-- 86 -->
    <g style="fill: #808080" transform="translate(75.246411 226.934671)scale(0.1 -0.1)">
     <use xlink:href="#LiberationSans-38"/>
     <use xlink:href="#LiberationSans-36" x="55.615234"/>
    </g>
   </g>
   <g id="text_100">
    <!-- 87 -->
    <g style="fill: #808080" transform="translate(138.680138 60.27143)scale(0.1 -0.1)">
     <use xlink:href="#LiberationSans-38"/>
     <use xlink:href="#LiberationSans-37" x="55.615234"/>
    </g>
   </g>
   <g id="text_101">
    <!-- 88 -->
    <g style="fill: #808080" transform="translate(175.250987 225.200532)scale(0.1 -0.1)">
     <use xlink:href="#LiberationSans-38"/>
     <use xlink:href="#LiberationSans-38" x="55.615234"/>
    </g>
   </g>
   <g id="text_102">
    <!-- 89 -->
    <g style="fill: #808080" transform="translate(177.526776 61.814361)scale(0.1 -0.1)">
     <use xlink:href="#LiberationSans-38"/>
     <use xlink:href="#LiberationSans-39" x="55.615234"/>
    </g>
   </g>
   <g id="text_103">
    <!-- 90 -->
    <g style="fill: #808080" transform="translate(267.097145 142.593869)scale(0.1 -0.1)">
     <use xlink:href="#LiberationSans-39"/>
     <use xlink:href="#LiberationSans-30" x="55.615234"/>
    </g>
   </g>
   <g id="text_104">
    <!-- 91 -->
    <g style="fill: #808080" transform="translate(293.807579 200.373997)scale(0.1 -0.1)">
     <use xlink:href="#LiberationSans-39"/>
     <use xlink:href="#LiberationSans-31" x="55.615234"/>
    </g>
   </g>
   <g id="text_105">
    <!-- 92 -->
    <g style="fill: #808080" transform="translate(195.541158 135.216759)scale(0.1 -0.1)">
     <use xlink:href="#LiberationSans-39"/>
     <use xlink:href="#LiberationSans-32" x="55.615234"/>
    </g>
   </g>
   <g id="text_106">
    <!-- 93 -->
    <g style="fill: #808080" transform="translate(60.835284 248.893839)scale(0.1 -0.1)">
     <use xlink:href="#LiberationSans-39"/>
     <use xlink:href="#LiberationSans-33" x="55.615234"/>
    </g>
   </g>
   <g id="text_107">
    <!-- 94 -->
    <g style="fill: #808080" transform="translate(169.43598 237.215218)scale(0.1 -0.1)">
     <use xlink:href="#LiberationSans-39"/>
     <use xlink:href="#LiberationSans-34" x="55.615234"/>
    </g>
   </g>
   <g id="text_108">
    <!-- 95 -->
    <g style="fill: #808080" transform="translate(268.288456 202.6968)scale(0.1 -0.1)">
     <use xlink:href="#LiberationSans-39"/>
     <use xlink:href="#LiberationSans-35" x="55.615234"/>
    </g>
   </g>
   <g id="text_109">
    <!-- 96 -->
    <g style="fill: #808080" transform="translate(345.943369 155.715138)scale(0.1 -0.1)">
     <use xlink:href="#LiberationSans-39"/>
     <use xlink:href="#LiberationSans-36" x="55.615234"/>
    </g>
   </g>
   <g id="text_110">
    <!-- 97 -->
    <g style="fill: #808080" transform="translate(195.537376 196.841177)scale(0.1 -0.1)">
     <use xlink:href="#LiberationSans-39"/>
     <use xlink:href="#LiberationSans-37" x="55.615234"/>
    </g>
   </g>
   <g id="text_111">
    <!-- 98 -->
    <g style="fill: #808080" transform="translate(289.308704 192.884504)scale(0.1 -0.1)">
     <use xlink:href="#LiberationSans-39"/>
     <use xlink:href="#LiberationSans-38" x="55.615234"/>
    </g>
   </g>
   <g id="text_112">
    <!-- 99 -->
    <g style="fill: #808080" transform="translate(276.378267 284.973594)scale(0.1 -0.1)">
     <use xlink:href="#LiberationSans-39"/>
     <use xlink:href="#LiberationSans-39" x="55.615234"/>
    </g>
   </g>
  </g>
 </g>
 <defs>
  <clipPath id="p92c574d690">
   <rect x="57.6" y="41.472" width="357.12" height="266.112"/>
  </clipPath>
 </defs>
</svg>
