{
    "simulationName": "QUA:0080-MD:254",
    "resultsDirectory": "R-Linear-quantity-dependency-DFF",
    "plot": false,
    "startId": 100,
    "quantity": 80,
    "seedId": null,
    "xSize": 100,
    "ySize": 100,
    "hostQuantity": 100,
    "hostRoutingType": "AODV",
    "hostProtoDelayType": "LINEAR",
    "hostProtoDelayConfiguration": {
        "constDelay": 10,
        "minDelay": 0,
        "maxDelay": 254,
        "threshold": 1,
        "base": 100
    },
    "hostCommDelayType": "DEFAULT",
    "hostCommDelayConfiguration": {},
    "layoutType": "UNIFORM",
    "linkType": "DEFAULT",
    "topologyType": "BETA_SKELETON",
    "topologyConfiguration": {
        "beta": 1
    },
    "routingType": "AODV",
    "communicationModel": null,
    "routingConfiguration": {
        "sinkId": 0,
        "communicationModel": "SINK",
        "destinationOnlyFlag": false
    },
    "metricType": "ALL_METRIC",
    "scenarioType": "ADJUSTABLE",
    "scenarioConfiguration": {
        "ratio": 0.5,
        "pdrMin": 0,
        "pdrMax": 1
    },
    "results": {
        "_results": {},
        "_statsData": null,
        "_statsDataText": null
    }
}