{
    "simulationName": "BASE:1024-MD:128",
    "resultsDirectory": "R-Exponential-DFT-Beta:2.0",
    "plot": false,
    "startId": 100,
    "quantity": 100,
    "seedId": null,
    "xSize": 100,
    "ySize": 100,
    "hostQuantity": 100,
    "hostRoutingType": "AODV",
    "hostProtoDelayType": "EXPONENTIAL",
    "hostProtoDelayConfiguration": {
        "constDelay": 10,
        "minDelay": 0,
        "maxDelay": 128,
        "threshold": 1,
        "base": 1024
    },
    "hostCommDelayType": "DEFAULT",
    "hostCommDelayConfiguration": {},
    "layoutType": "UNIFORM",
    "linkType": "DEFAULT",
    "topologyType": "BETA_SKELETON",
    "topologyConfiguration": {
        "beta": 2.0
    },
    "routingType": "AODV",
    "communicationModel": null,
    "routingConfiguration": {
        "sinkId": 0,
        "communicationModel": "SINK",
        "destinationOnlyFlag": true
    },
    "metricType": "ALL_METRIC",
    "scenarioType": "ADJUSTABLE",
    "scenarioConfiguration": {
        "ratio": 0.5,
        "pdrMin": 0,
        "pdrMax": 1
    },
    "results": {
        "_results": {},
        "_statsData": null,
        "_statsDataText": null
    }
}